{"failedCount":0,"prefixedPath":"src\/test\/java\/ft.feature","packageQualifiedName":"src.test.java.ft","loopIndex":-1,"relativePath":"src\/test\/java\/ft.feature","scenarioResults":[{"sectionIndex":0,"stepResults":[{"result":{"nanos":132017000,"millis":132.017,"status":"passed"},"step":{"background":true,"line":3,"prefix":"*","index":0,"text":"url 'https:\/\/reqres.in'"}},{"result":{"nanos":898600,"millis":0.8986,"status":"passed"},"step":{"line":6,"prefix":"Given","index":0,"text":"path '\/api\/users?page=2'"}},{"result":{"nanos":733496100,"millis":733.4961,"status":"passed"},"step":{"line":7,"prefix":"When","index":1,"text":"method GET"},"stepLog":"16:24:23.458 request:\n1 > GET https:\/\/reqres.in\/api\/users%3Fpage=2\n1 > Host: reqres.in\n1 > Connection: Keep-Alive\n1 > User-Agent: Apache-HttpClient\/4.5.14 (Java\/17.0.3.1)\n1 > Accept-Encoding: gzip,deflate\n\n\n16:24:23.848 response time in milliseconds: 381\n1 < 200\n1 < Date: Tue, 12 Mar 2024 10:54:24 GMT\n1 < Content-Type: application\/json; charset=utf-8\n1 < Transfer-Encoding: chunked\n1 < Connection: keep-alive\n1 < Report-To: {\"group\":\"heroku-nel\",\"max_age\":3600,\"endpoints\":[{\"url\":\"https:\/\/nel.heroku.com\/reports?ts=1709546419&sid=c4c9725f-1ab0-44d8-820f-430df2718e11&s=D82YLegJPXXT0B%2FaJN7iM%2BsnLEqrcTuRt2kPxqXVYe4%3D\"}]}\n1 < Reporting-Endpoints: heroku-nel=https:\/\/nel.heroku.com\/reports?ts=1709546419&sid=c4c9725f-1ab0-44d8-820f-430df2718e11&s=D82YLegJPXXT0B%2FaJN7iM%2BsnLEqrcTuRt2kPxqXVYe4%3D\n1 < Nel: {\"report_to\":\"heroku-nel\",\"max_age\":3600,\"success_fraction\":0.005,\"failure_fraction\":0.05,\"response_headers\":[\"Via\"]}\n1 < X-Powered-By: Express\n1 < Access-Control-Allow-Origin: *\n1 < Etag: W\/\"2c1-N6Rqerxquq2kgQhL51EiSg4x0R8\"\n1 < Via: 1.1 vegur\n1 < Cache-Control: max-age=14400\n1 < CF-Cache-Status: HIT\n1 < Age: 3059\n1 < Vary: Accept-Encoding\n1 < Server: cloudflare\n1 < CF-RAY: 86333ef83eb9442a-BOM\n{\"page\":1,\"per_page\":6,\"total\":12,\"total_pages\":2,\"data\":[{\"id\":1,\"name\":\"cerulean\",\"year\":2000,\"color\":\"#98B2D1\",\"pantone_value\":\"15-4020\"},{\"id\":2,\"name\":\"fuchsia rose\",\"year\":2001,\"color\":\"#C74375\",\"pantone_value\":\"17-2031\"},{\"id\":3,\"name\":\"true red\",\"year\":2002,\"color\":\"#BF1932\",\"pantone_value\":\"19-1664\"},{\"id\":4,\"name\":\"aqua sky\",\"year\":2003,\"color\":\"#7BC4C4\",\"pantone_value\":\"14-4811\"},{\"id\":5,\"name\":\"tigerlily\",\"year\":2004,\"color\":\"#E2583E\",\"pantone_value\":\"17-1456\"},{\"id\":6,\"name\":\"blue turquoise\",\"year\":2005,\"color\":\"#53B0AE\",\"pantone_value\":\"15-5217\"}],\"support\":{\"url\":\"https:\/\/reqres.in\/#support-heading\",\"text\":\"To keep ReqRes free, contributions towards server costs are appreciated!\"}}\n\n"},{"result":{"nanos":26600,"millis":0.0266,"status":"passed"},"step":{"line":8,"prefix":"Then","index":2,"text":"status 200"}},{"result":{"nanos":67147800,"millis":67.1478,"status":"passed"},"step":{"line":9,"prefix":"*","index":3,"text":"print response"},"stepLog":"16:24:23.947 [print] {\n  \"page\": 1,\n  \"per_page\": 6,\n  \"total\": 12,\n  \"total_pages\": 2,\n  \"data\": [\n    {\n      \"id\": 1,\n      \"name\": \"cerulean\",\n      \"year\": 2000,\n      \"color\": \"#98B2D1\",\n      \"pantone_value\": \"15-4020\"\n    },\n    {\n      \"id\": 2,\n      \"name\": \"fuchsia rose\",\n      \"year\": 2001,\n      \"color\": \"#C74375\",\n      \"pantone_value\": \"17-2031\"\n    },\n    {\n      \"id\": 3,\n      \"name\": \"true red\",\n      \"year\": 2002,\n      \"color\": \"#BF1932\",\n      \"pantone_value\": \"19-1664\"\n    },\n    {\n      \"id\": 4,\n      \"name\": \"aqua sky\",\n      \"year\": 2003,\n      \"color\": \"#7BC4C4\",\n      \"pantone_value\": \"14-4811\"\n    },\n    {\n      \"id\": 5,\n      \"name\": \"tigerlily\",\n      \"year\": 2004,\n      \"color\": \"#E2583E\",\n      \"pantone_value\": \"17-1456\"\n    },\n    {\n      \"id\": 6,\n      \"name\": \"blue turquoise\",\n      \"year\": 2005,\n      \"color\": \"#53B0AE\",\n      \"pantone_value\": \"15-5217\"\n    }\n  ],\n  \"support\": {\n    \"url\": \"https:\/\/reqres.in\/#support-heading\",\n    \"text\": \"To keep ReqRes free, contributions towards server costs are appreciated!\"\n  }\n}\n \n"}],"executorName":"main","line":5,"name":"Get data","description":"","durationMillis":933.5861,"startTime":1710240862987,"failed":false,"refId":"[1:5]","endTime":1710240863948,"exampleIndex":-1},{"sectionIndex":1,"stepResults":[{"result":{"nanos":378400,"millis":0.3784,"status":"passed"},"step":{"background":true,"line":3,"prefix":"*","index":0,"text":"url 'https:\/\/reqres.in'"}},{"result":{"nanos":627700,"millis":0.6277,"status":"passed"},"step":{"line":12,"prefix":"Given","index":0,"text":"path '\/api\/users'"}},{"result":{"nanos":645800,"millis":0.6458,"status":"passed"},"step":{"line":13,"prefix":"And","index":1,"text":"request '{ \"name\": \"morpheus\", \"job\": \"leader\" }'"}},{"result":{"nanos":409483500,"millis":409.4835,"status":"passed"},"step":{"line":14,"prefix":"When","index":2,"text":"method POST"},"stepLog":"16:24:23.992 request:\n1 > POST https:\/\/reqres.in\/api\/users\n1 > Content-Type: text\/plain; charset=UTF-8\n1 > Content-Length: 39\n1 > Host: reqres.in\n1 > Connection: Keep-Alive\n1 > User-Agent: Apache-HttpClient\/4.5.14 (Java\/17.0.3.1)\n1 > Accept-Encoding: gzip,deflate\n{ \"name\": \"morpheus\", \"job\": \"leader\" }\n\n16:24:24.364 response time in milliseconds: 368\n1 < 201\n1 < Date: Tue, 12 Mar 2024 10:54:24 GMT\n1 < Content-Type: application\/json; charset=utf-8\n1 < Content-Length: 51\n1 < Connection: keep-alive\n1 < Report-To: {\"group\":\"heroku-nel\",\"max_age\":3600,\"endpoints\":[{\"url\":\"https:\/\/nel.heroku.com\/reports?ts=1710240864&sid=c4c9725f-1ab0-44d8-820f-430df2718e11&s=%2BWsGM0hVagDsBpxqt%2BCkCPNWB%2FyKchrHYDFnKFmEIiM%3D\"}]}\n1 < Reporting-Endpoints: heroku-nel=https:\/\/nel.heroku.com\/reports?ts=1710240864&sid=c4c9725f-1ab0-44d8-820f-430df2718e11&s=%2BWsGM0hVagDsBpxqt%2BCkCPNWB%2FyKchrHYDFnKFmEIiM%3D\n1 < Nel: {\"report_to\":\"heroku-nel\",\"max_age\":3600,\"success_fraction\":0.005,\"failure_fraction\":0.05,\"response_headers\":[\"Via\"]}\n1 < X-Powered-By: Express\n1 < Access-Control-Allow-Origin: *\n1 < Etag: W\/\"33-pYdfeuMIowTtRHS2YEsSrry43BA\"\n1 < Via: 1.1 vegur\n1 < CF-Cache-Status: DYNAMIC\n1 < Server: cloudflare\n1 < CF-RAY: 86333ef9fe5b85b7-BOM\n{\"id\":\"978\",\"createdAt\":\"2024-03-12T10:54:24.521Z\"}\n\n"},{"result":{"nanos":10300,"millis":0.0103,"status":"passed"},"step":{"line":15,"prefix":"Then","index":3,"text":"status 201"}},{"result":{"nanos":1824800,"millis":1.8248,"status":"passed"},"step":{"line":16,"prefix":"*","index":4,"text":"def id = response.id"}},{"result":{"nanos":1134600,"millis":1.1346,"status":"passed"},"step":{"line":17,"prefix":"*","index":5,"text":"print id"},"stepLog":"16:24:24.368 [print] 978 \n"}],"executorName":"main","line":11,"name":"Create user","description":"","durationMillis":414.1051,"startTime":1710240863953,"failed":false,"refId":"[2:11]","endTime":1710240864369,"exampleIndex":-1},{"sectionIndex":2,"stepResults":[{"result":{"nanos":279100,"millis":0.2791,"status":"passed"},"step":{"background":true,"line":3,"prefix":"*","index":0,"text":"url 'https:\/\/reqres.in'"}},{"result":{"nanos":559400,"millis":0.5594,"status":"passed"},"step":{"line":20,"prefix":"Given","index":0,"text":"path '\/api\/users\/<id>'"}},{"result":{"nanos":14940200,"millis":14.9402,"status":"passed"},"step":{"endLine":25,"line":21,"prefix":"And","docString":"{ \"name\": \"Mark\",\n\"job\": \"Teacher\"}","index":1,"text":"request"}},{"result":{"nanos":346880500,"millis":346.8805,"status":"passed"},"step":{"line":26,"prefix":"When","index":2,"text":"method PUT"},"stepLog":"16:24:24.392 request:\n1 > PUT https:\/\/reqres.in\/api\/users\/%3Cid%3E\n1 > Content-Type: application\/json; charset=UTF-8\n1 > Content-Length: 31\n1 > Host: reqres.in\n1 > Connection: Keep-Alive\n1 > User-Agent: Apache-HttpClient\/4.5.14 (Java\/17.0.3.1)\n1 > Accept-Encoding: gzip,deflate\n{\"name\":\"Mark\",\"job\":\"Teacher\"}\n\n16:24:24.736 response time in milliseconds: 341\n1 < 200\n1 < Date: Tue, 12 Mar 2024 10:54:24 GMT\n1 < Content-Type: application\/json; charset=utf-8\n1 < Transfer-Encoding: chunked\n1 < Connection: keep-alive\n1 < Report-To: {\"group\":\"heroku-nel\",\"max_age\":3600,\"endpoints\":[{\"url\":\"https:\/\/nel.heroku.com\/reports?ts=1710240864&sid=c4c9725f-1ab0-44d8-820f-430df2718e11&s=%2BWsGM0hVagDsBpxqt%2BCkCPNWB%2FyKchrHYDFnKFmEIiM%3D\"}]}\n1 < Reporting-Endpoints: heroku-nel=https:\/\/nel.heroku.com\/reports?ts=1710240864&sid=c4c9725f-1ab0-44d8-820f-430df2718e11&s=%2BWsGM0hVagDsBpxqt%2BCkCPNWB%2FyKchrHYDFnKFmEIiM%3D\n1 < Nel: {\"report_to\":\"heroku-nel\",\"max_age\":3600,\"success_fraction\":0.005,\"failure_fraction\":0.05,\"response_headers\":[\"Via\"]}\n1 < X-Powered-By: Express\n1 < Access-Control-Allow-Origin: *\n1 < Etag: W\/\"46-6RmTkaMhvBJblHhtliKZdN75Rzc\"\n1 < Via: 1.1 vegur\n1 < CF-Cache-Status: DYNAMIC\n1 < Vary: Accept-Encoding\n1 < Server: cloudflare\n1 < CF-RAY: 86333efc5bab482f-BOM\n{\"name\":\"Mark\",\"job\":\"Teacher\",\"updatedAt\":\"2024-03-12T10:54:24.899Z\"}\n\n"},{"result":{"nanos":19800,"millis":0.0198,"status":"passed"},"step":{"line":27,"prefix":"Then","index":3,"text":"status 200"}},{"result":{"nanos":1393800,"millis":1.3938,"status":"passed"},"step":{"line":28,"prefix":"And","index":4,"text":"print response"},"stepLog":"16:24:24.740 [print] {\n  \"name\": \"Mark\",\n  \"job\": \"Teacher\",\n  \"updatedAt\": \"2024-03-12T10:54:24.899Z\"\n}\n \n"},{"result":{"nanos":27615300,"millis":27.6153,"status":"passed"},"step":{"line":29,"prefix":"And","index":5,"text":"match response.name != \"morpheus\""}},{"result":{"nanos":830400,"millis":0.8304,"status":"passed"},"step":{"line":30,"prefix":"And","index":6,"text":"match response.job != \"zion resident\""}}],"executorName":"main","line":19,"name":"Verify whether the id successfully getting Updated","description":"","durationMillis":392.5185,"startTime":1710240864374,"failed":false,"refId":"[3:19]","endTime":1710240864768,"exampleIndex":-1}],"callDepth":0,"name":"API Testing","description":"","resultDate":"2024-03-12 04:24:24 pm","durationMillis":1740.2097,"passedCount":3}