{"failedCount":1,"prefixedPath":"src\/test\/java\/ft.feature","packageQualifiedName":"src.test.java.ft","loopIndex":-1,"relativePath":"src\/test\/java\/ft.feature","scenarioResults":[{"sectionIndex":0,"stepResults":[{"result":{"nanos":51903500,"millis":51.9035,"status":"passed"},"step":{"background":true,"line":3,"prefix":"*","index":0,"text":"url 'https:\/\/reqres.in'"}},{"result":{"nanos":480100,"millis":0.4801,"status":"passed"},"step":{"line":6,"prefix":"Given","index":0,"text":"path '\/api\/users?page=2'"}},{"result":{"nanos":558690300,"millis":558.6903,"status":"passed"},"step":{"line":7,"prefix":"When","index":1,"text":"method GET"},"stepLog":"16:18:42.312 request:\n1 > GET https:\/\/reqres.in\/api\/users%3Fpage=2\n1 > Host: reqres.in\n1 > Connection: Keep-Alive\n1 > User-Agent: Apache-HttpClient\/4.5.14 (Java\/17.0.3.1)\n1 > Accept-Encoding: gzip,deflate\n\n\n16:18:42.581 response time in milliseconds: 249\n1 < 200\n1 < Date: Tue, 12 Mar 2024 10:48:42 GMT\n1 < Content-Type: application\/json; charset=utf-8\n1 < Transfer-Encoding: chunked\n1 < Connection: keep-alive\n1 < Report-To: {\"group\":\"heroku-nel\",\"max_age\":3600,\"endpoints\":[{\"url\":\"https:\/\/nel.heroku.com\/reports?ts=1709546419&sid=c4c9725f-1ab0-44d8-820f-430df2718e11&s=D82YLegJPXXT0B%2FaJN7iM%2BsnLEqrcTuRt2kPxqXVYe4%3D\"}]}\n1 < Reporting-Endpoints: heroku-nel=https:\/\/nel.heroku.com\/reports?ts=1709546419&sid=c4c9725f-1ab0-44d8-820f-430df2718e11&s=D82YLegJPXXT0B%2FaJN7iM%2BsnLEqrcTuRt2kPxqXVYe4%3D\n1 < Nel: {\"report_to\":\"heroku-nel\",\"max_age\":3600,\"success_fraction\":0.005,\"failure_fraction\":0.05,\"response_headers\":[\"Via\"]}\n1 < X-Powered-By: Express\n1 < Access-Control-Allow-Origin: *\n1 < Etag: W\/\"2c1-N6Rqerxquq2kgQhL51EiSg4x0R8\"\n1 < Via: 1.1 vegur\n1 < Cache-Control: max-age=14400\n1 < CF-Cache-Status: HIT\n1 < Age: 2717\n1 < Vary: Accept-Encoding\n1 < Server: cloudflare\n1 < CF-RAY: 863336a34a7640e7-BOM\n{\"page\":1,\"per_page\":6,\"total\":12,\"total_pages\":2,\"data\":[{\"id\":1,\"name\":\"cerulean\",\"year\":2000,\"color\":\"#98B2D1\",\"pantone_value\":\"15-4020\"},{\"id\":2,\"name\":\"fuchsia rose\",\"year\":2001,\"color\":\"#C74375\",\"pantone_value\":\"17-2031\"},{\"id\":3,\"name\":\"true red\",\"year\":2002,\"color\":\"#BF1932\",\"pantone_value\":\"19-1664\"},{\"id\":4,\"name\":\"aqua sky\",\"year\":2003,\"color\":\"#7BC4C4\",\"pantone_value\":\"14-4811\"},{\"id\":5,\"name\":\"tigerlily\",\"year\":2004,\"color\":\"#E2583E\",\"pantone_value\":\"17-1456\"},{\"id\":6,\"name\":\"blue turquoise\",\"year\":2005,\"color\":\"#53B0AE\",\"pantone_value\":\"15-5217\"}],\"support\":{\"url\":\"https:\/\/reqres.in\/#support-heading\",\"text\":\"To keep ReqRes free, contributions towards server costs are appreciated!\"}}\n\n"},{"result":{"nanos":19000,"millis":0.019,"status":"passed"},"step":{"line":8,"prefix":"Then","index":2,"text":"status 200"}},{"result":{"nanos":62631700,"millis":62.6317,"status":"passed"},"step":{"line":9,"prefix":"*","index":3,"text":"print response"},"stepLog":"16:18:42.679 [print] {\n  \"page\": 1,\n  \"per_page\": 6,\n  \"total\": 12,\n  \"total_pages\": 2,\n  \"data\": [\n    {\n      \"id\": 1,\n      \"name\": \"cerulean\",\n      \"year\": 2000,\n      \"color\": \"#98B2D1\",\n      \"pantone_value\": \"15-4020\"\n    },\n    {\n      \"id\": 2,\n      \"name\": \"fuchsia rose\",\n      \"year\": 2001,\n      \"color\": \"#C74375\",\n      \"pantone_value\": \"17-2031\"\n    },\n    {\n      \"id\": 3,\n      \"name\": \"true red\",\n      \"year\": 2002,\n      \"color\": \"#BF1932\",\n      \"pantone_value\": \"19-1664\"\n    },\n    {\n      \"id\": 4,\n      \"name\": \"aqua sky\",\n      \"year\": 2003,\n      \"color\": \"#7BC4C4\",\n      \"pantone_value\": \"14-4811\"\n    },\n    {\n      \"id\": 5,\n      \"name\": \"tigerlily\",\n      \"year\": 2004,\n      \"color\": \"#E2583E\",\n      \"pantone_value\": \"17-1456\"\n    },\n    {\n      \"id\": 6,\n      \"name\": \"blue turquoise\",\n      \"year\": 2005,\n      \"color\": \"#53B0AE\",\n      \"pantone_value\": \"15-5217\"\n    }\n  ],\n  \"support\": {\n    \"url\": \"https:\/\/reqres.in\/#support-heading\",\n    \"text\": \"To keep ReqRes free, contributions towards server costs are appreciated!\"\n  }\n}\n \n"}],"executorName":"main","line":5,"name":"Get data","description":"","durationMillis":673.7246,"startTime":1710240521993,"failed":false,"refId":"[1:5]","endTime":1710240522681,"exampleIndex":-1},{"sectionIndex":1,"stepResults":[{"result":{"nanos":813300,"millis":0.8133,"status":"passed"},"step":{"background":true,"line":3,"prefix":"*","index":0,"text":"url 'https:\/\/reqres.in'"}},{"result":{"nanos":526500,"millis":0.5265,"status":"passed"},"step":{"line":12,"prefix":"Given","index":0,"text":"path '\/api\/users'"}},{"result":{"nanos":503500,"millis":0.5035,"status":"passed"},"step":{"line":13,"prefix":"And","index":1,"text":"request '{ \"name\": \"morpheus\", \"job\": \"leader\" }'"}},{"result":{"nanos":428506300,"millis":428.5063,"status":"passed"},"step":{"line":14,"prefix":"When","index":2,"text":"method POST"},"stepLog":"16:18:42.729 request:\n1 > POST https:\/\/reqres.in\/api\/users\n1 > Content-Type: text\/plain; charset=UTF-8\n1 > Content-Length: 39\n1 > Host: reqres.in\n1 > Connection: Keep-Alive\n1 > User-Agent: Apache-HttpClient\/4.5.14 (Java\/17.0.3.1)\n1 > Accept-Encoding: gzip,deflate\n{ \"name\": \"morpheus\", \"job\": \"leader\" }\n\n16:18:43.116 response time in milliseconds: 382\n1 < 201\n1 < Date: Tue, 12 Mar 2024 10:48:43 GMT\n1 < Content-Type: application\/json; charset=utf-8\n1 < Content-Length: 51\n1 < Connection: keep-alive\n1 < Report-To: {\"group\":\"heroku-nel\",\"max_age\":3600,\"endpoints\":[{\"url\":\"https:\/\/nel.heroku.com\/reports?ts=1710240523&sid=c4c9725f-1ab0-44d8-820f-430df2718e11&s=hZPL7tJ9YNqoGX5llhp5WAhkpx%2F7vN5MH9GwAAzaFlQ%3D\"}]}\n1 < Reporting-Endpoints: heroku-nel=https:\/\/nel.heroku.com\/reports?ts=1710240523&sid=c4c9725f-1ab0-44d8-820f-430df2718e11&s=hZPL7tJ9YNqoGX5llhp5WAhkpx%2F7vN5MH9GwAAzaFlQ%3D\n1 < Nel: {\"report_to\":\"heroku-nel\",\"max_age\":3600,\"success_fraction\":0.005,\"failure_fraction\":0.05,\"response_headers\":[\"Via\"]}\n1 < X-Powered-By: Express\n1 < Access-Control-Allow-Origin: *\n1 < Etag: W\/\"33-9vwd7VHXWyKq0YFzWf4OL+ofNvI\"\n1 < Via: 1.1 vegur\n1 < CF-Cache-Status: DYNAMIC\n1 < Server: cloudflare\n1 < CF-RAY: 863336a52d504713-BOM\n{\"id\":\"451\",\"createdAt\":\"2024-03-12T10:48:43.255Z\"}\n\n"},{"result":{"nanos":14400,"millis":0.0144,"status":"passed"},"step":{"line":15,"prefix":"Then","index":3,"text":"status 201"}},{"result":{"nanos":3994000,"millis":3.994,"status":"passed"},"step":{"line":16,"prefix":"*","index":4,"text":"def id = response.id"}},{"result":{"nanos":1203800,"millis":1.2038,"status":"passed"},"step":{"line":17,"prefix":"*","index":5,"text":"print id"},"stepLog":"16:18:43.124 [print] 451 \n"}],"executorName":"main","line":11,"name":"Create user","description":"","durationMillis":435.5618,"startTime":1710240522687,"failed":false,"refId":"[2:11]","endTime":1710240523124,"exampleIndex":-1},{"sectionIndex":2,"stepResults":[{"result":{"nanos":268500,"millis":0.2685,"status":"passed"},"step":{"background":true,"line":3,"prefix":"*","index":0,"text":"url 'https:\/\/reqres.in'"}},{"result":{"nanos":459500,"millis":0.4595,"status":"passed"},"step":{"line":20,"prefix":"Given","index":0,"text":"path '\/api\/users\/ + id'"}},{"result":{"nanos":527200,"millis":0.5272,"status":"passed"},"step":{"line":21,"prefix":"And","index":1,"text":"request '{ \"name\": \"Burpheee\", \"job\": \"Berojgagaar}'"}},{"result":{"nanos":694943600,"millis":694.9436,"status":"passed"},"step":{"line":22,"prefix":"When","index":2,"text":"method PUT"},"stepLog":"16:18:43.132 request:\n1 > PUT https:\/\/reqres.in\/api\/users\/%20+%20id\n1 > Content-Type: text\/plain; charset=UTF-8\n1 > Content-Length: 42\n1 > Host: reqres.in\n1 > Connection: Keep-Alive\n1 > User-Agent: Apache-HttpClient\/4.5.14 (Java\/17.0.3.1)\n1 > Accept-Encoding: gzip,deflate\n{ \"name\": \"Burpheee\", \"job\": \"Berojgagaar}\n\n16:18:43.824 response time in milliseconds: 683\n1 < 200\n1 < Date: Tue, 12 Mar 2024 10:48:44 GMT\n1 < Content-Type: application\/json; charset=utf-8\n1 < Content-Length: 40\n1 < Connection: keep-alive\n1 < Report-To: {\"group\":\"heroku-nel\",\"max_age\":3600,\"endpoints\":[{\"url\":\"https:\/\/nel.heroku.com\/reports?ts=1710240523&sid=c4c9725f-1ab0-44d8-820f-430df2718e11&s=hZPL7tJ9YNqoGX5llhp5WAhkpx%2F7vN5MH9GwAAzaFlQ%3D\"}]}\n1 < Reporting-Endpoints: heroku-nel=https:\/\/nel.heroku.com\/reports?ts=1710240523&sid=c4c9725f-1ab0-44d8-820f-430df2718e11&s=hZPL7tJ9YNqoGX5llhp5WAhkpx%2F7vN5MH9GwAAzaFlQ%3D\n1 < Nel: {\"report_to\":\"heroku-nel\",\"max_age\":3600,\"success_fraction\":0.005,\"failure_fraction\":0.05,\"response_headers\":[\"Via\"]}\n1 < X-Powered-By: Express\n1 < Access-Control-Allow-Origin: *\n1 < Etag: W\/\"28-eWnLEnVWaio4B9EnkKm\/4p9EUpg\"\n1 < Via: 1.1 vegur\n1 < CF-Cache-Status: DYNAMIC\n1 < Vary: Accept-Encoding\n1 < Server: cloudflare\n1 < CF-RAY: 863336a93ceef4da-BOM\n{\"updatedAt\":\"2024-03-12T10:48:43.938Z\"}\n\n"},{"result":{"nanos":15700,"millis":0.0157,"status":"passed"},"step":{"line":23,"prefix":"Then","index":3,"text":"status 200"}},{"result":{"nanos":732000,"millis":0.732,"status":"passed"},"step":{"line":24,"prefix":"*","index":4,"text":"print response"},"stepLog":"16:18:43.827 [print] {\n  \"updatedAt\": \"2024-03-12T10:48:43.938Z\"\n}\n \n"},{"result":{"nanos":39211500,"errorMessage":"match failed: NOT_EQUALS\n  $ | actual path does not exist (STRING:STRING)\n  '#notpresent'\n  'morpheus'\n\nsrc\/test\/java\/ft.feature:25","millis":39.2115,"status":"failed"},"step":{"line":25,"prefix":"And","index":5,"text":"match response.name != \"morpheus\""},"stepLog":"16:18:43.864 src\/test\/java\/ft.feature:25\nAnd match response.name != \"morpheus\"\nmatch failed: NOT_EQUALS\n  $ | actual path does not exist (STRING:STRING)\n  '#notpresent'\n  'morpheus'\n\nsrc\/test\/java\/ft.feature:25\n"}],"line":19,"description":"","durationMillis":736.158,"failed":true,"error":"match failed: NOT_EQUALS\n  $ | actual path does not exist (STRING:STRING)\n  '#notpresent'\n  'morpheus'\n\nsrc\/test\/java\/ft.feature:25","executorName":"main","name":"Update user","startTime":1710240523128,"refId":"[3:19]","endTime":1710240523864,"exampleIndex":-1}],"callDepth":0,"name":"API Testing","description":"","resultDate":"2024-03-12 04:18:43 pm","durationMillis":1845.4444,"passedCount":2}