{"failedCount":1,"prefixedPath":"src\/test\/java\/ft.feature","packageQualifiedName":"src.test.java.ft","loopIndex":-1,"relativePath":"src\/test\/java\/ft.feature","scenarioResults":[{"sectionIndex":0,"stepResults":[{"result":{"nanos":63726800,"millis":63.7268,"status":"passed"},"step":{"background":true,"line":3,"prefix":"*","index":0,"text":"url 'https:\/\/reqres.in'"}},{"result":{"nanos":545200,"millis":0.5452,"status":"passed"},"step":{"line":6,"prefix":"Given","index":0,"text":"path '\/api\/users?page=2'"}},{"result":{"nanos":552604000,"millis":552.604,"status":"passed"},"step":{"line":7,"prefix":"When","index":1,"text":"method GET"},"stepLog":"16:17:57.034 request:\n1 > GET https:\/\/reqres.in\/api\/users%3Fpage=2\n1 > Host: reqres.in\n1 > Connection: Keep-Alive\n1 > User-Agent: Apache-HttpClient\/4.5.14 (Java\/17.0.3.1)\n1 > Accept-Encoding: gzip,deflate\n\n\n16:17:57.283 response time in milliseconds: 241\n1 < 200\n1 < Date: Tue, 12 Mar 2024 10:47:57 GMT\n1 < Content-Type: application\/json; charset=utf-8\n1 < Transfer-Encoding: chunked\n1 < Connection: keep-alive\n1 < Report-To: {\"group\":\"heroku-nel\",\"max_age\":3600,\"endpoints\":[{\"url\":\"https:\/\/nel.heroku.com\/reports?ts=1710126852&sid=c4c9725f-1ab0-44d8-820f-430df2718e11&s=3v52PBlb7XAJJ3pgZXyeNyp9CY725gKnArTd20wePyY%3D\"}]}\n1 < Reporting-Endpoints: heroku-nel=https:\/\/nel.heroku.com\/reports?ts=1710126852&sid=c4c9725f-1ab0-44d8-820f-430df2718e11&s=3v52PBlb7XAJJ3pgZXyeNyp9CY725gKnArTd20wePyY%3D\n1 < Nel: {\"report_to\":\"heroku-nel\",\"max_age\":3600,\"success_fraction\":0.005,\"failure_fraction\":0.05,\"response_headers\":[\"Via\"]}\n1 < X-Powered-By: Express\n1 < Access-Control-Allow-Origin: *\n1 < Etag: W\/\"2c1-N6Rqerxquq2kgQhL51EiSg4x0R8\"\n1 < Via: 1.1 vegur\n1 < Cache-Control: max-age=14400\n1 < CF-Cache-Status: HIT\n1 < Age: 691\n1 < Vary: Accept-Encoding\n1 < Server: cloudflare\n1 < CF-RAY: 8633358869472e23-BOM\n{\"page\":1,\"per_page\":6,\"total\":12,\"total_pages\":2,\"data\":[{\"id\":1,\"name\":\"cerulean\",\"year\":2000,\"color\":\"#98B2D1\",\"pantone_value\":\"15-4020\"},{\"id\":2,\"name\":\"fuchsia rose\",\"year\":2001,\"color\":\"#C74375\",\"pantone_value\":\"17-2031\"},{\"id\":3,\"name\":\"true red\",\"year\":2002,\"color\":\"#BF1932\",\"pantone_value\":\"19-1664\"},{\"id\":4,\"name\":\"aqua sky\",\"year\":2003,\"color\":\"#7BC4C4\",\"pantone_value\":\"14-4811\"},{\"id\":5,\"name\":\"tigerlily\",\"year\":2004,\"color\":\"#E2583E\",\"pantone_value\":\"17-1456\"},{\"id\":6,\"name\":\"blue turquoise\",\"year\":2005,\"color\":\"#53B0AE\",\"pantone_value\":\"15-5217\"}],\"support\":{\"url\":\"https:\/\/reqres.in\/#support-heading\",\"text\":\"To keep ReqRes free, contributions towards server costs are appreciated!\"}}\n\n"},{"result":{"nanos":21000,"millis":0.021,"status":"passed"},"step":{"line":8,"prefix":"Then","index":2,"text":"status 200"}},{"result":{"nanos":57613100,"millis":57.6131,"status":"passed"},"step":{"line":9,"prefix":"*","index":3,"text":"print response"},"stepLog":"16:17:57.371 [print] {\n  \"page\": 1,\n  \"per_page\": 6,\n  \"total\": 12,\n  \"total_pages\": 2,\n  \"data\": [\n    {\n      \"id\": 1,\n      \"name\": \"cerulean\",\n      \"year\": 2000,\n      \"color\": \"#98B2D1\",\n      \"pantone_value\": \"15-4020\"\n    },\n    {\n      \"id\": 2,\n      \"name\": \"fuchsia rose\",\n      \"year\": 2001,\n      \"color\": \"#C74375\",\n      \"pantone_value\": \"17-2031\"\n    },\n    {\n      \"id\": 3,\n      \"name\": \"true red\",\n      \"year\": 2002,\n      \"color\": \"#BF1932\",\n      \"pantone_value\": \"19-1664\"\n    },\n    {\n      \"id\": 4,\n      \"name\": \"aqua sky\",\n      \"year\": 2003,\n      \"color\": \"#7BC4C4\",\n      \"pantone_value\": \"14-4811\"\n    },\n    {\n      \"id\": 5,\n      \"name\": \"tigerlily\",\n      \"year\": 2004,\n      \"color\": \"#E2583E\",\n      \"pantone_value\": \"17-1456\"\n    },\n    {\n      \"id\": 6,\n      \"name\": \"blue turquoise\",\n      \"year\": 2005,\n      \"color\": \"#53B0AE\",\n      \"pantone_value\": \"15-5217\"\n    }\n  ],\n  \"support\": {\n    \"url\": \"https:\/\/reqres.in\/#support-heading\",\n    \"text\": \"To keep ReqRes free, contributions towards server costs are appreciated!\"\n  }\n}\n \n"}],"executorName":"main","line":5,"name":"Get data","description":"","durationMillis":674.5101,"startTime":1710240476681,"failed":false,"refId":"[1:5]","endTime":1710240477372,"exampleIndex":-1},{"sectionIndex":1,"stepResults":[{"result":{"nanos":353700,"millis":0.3537,"status":"passed"},"step":{"background":true,"line":3,"prefix":"*","index":0,"text":"url 'https:\/\/reqres.in'"}},{"result":{"nanos":533300,"millis":0.5333,"status":"passed"},"step":{"line":12,"prefix":"Given","index":0,"text":"path '\/api\/users'"}},{"result":{"nanos":577300,"millis":0.5773,"status":"passed"},"step":{"line":13,"prefix":"And","index":1,"text":"request '{ \"name\": \"morpheus\", \"job\": \"leader\" }'"}},{"result":{"nanos":388633700,"millis":388.6337,"status":"passed"},"step":{"line":14,"prefix":"When","index":2,"text":"method POST"},"stepLog":"16:17:57.420 request:\n1 > POST https:\/\/reqres.in\/api\/users\n1 > Content-Type: text\/plain; charset=UTF-8\n1 > Content-Length: 39\n1 > Host: reqres.in\n1 > Connection: Keep-Alive\n1 > User-Agent: Apache-HttpClient\/4.5.14 (Java\/17.0.3.1)\n1 > Accept-Encoding: gzip,deflate\n{ \"name\": \"morpheus\", \"job\": \"leader\" }\n\n16:17:57.768 response time in milliseconds: 344\n1 < 201\n1 < Date: Tue, 12 Mar 2024 10:47:58 GMT\n1 < Content-Type: application\/json; charset=utf-8\n1 < Content-Length: 51\n1 < Connection: keep-alive\n1 < Report-To: {\"group\":\"heroku-nel\",\"max_age\":3600,\"endpoints\":[{\"url\":\"https:\/\/nel.heroku.com\/reports?ts=1710240477&sid=c4c9725f-1ab0-44d8-820f-430df2718e11&s=VmSVNZH3IOOP04AaiDH1p9JPjuGoC4CfmUKHeClZ49U%3D\"}]}\n1 < Reporting-Endpoints: heroku-nel=https:\/\/nel.heroku.com\/reports?ts=1710240477&sid=c4c9725f-1ab0-44d8-820f-430df2718e11&s=VmSVNZH3IOOP04AaiDH1p9JPjuGoC4CfmUKHeClZ49U%3D\n1 < Nel: {\"report_to\":\"heroku-nel\",\"max_age\":3600,\"success_fraction\":0.005,\"failure_fraction\":0.05,\"response_headers\":[\"Via\"]}\n1 < X-Powered-By: Express\n1 < Access-Control-Allow-Origin: *\n1 < Etag: W\/\"33-qvKvCEhxX4GiZ8hNrTJhBARL0x4\"\n1 < Via: 1.1 vegur\n1 < CF-Cache-Status: DYNAMIC\n1 < Server: cloudflare\n1 < CF-RAY: 86333589dd853f38-BOM\n{\"id\":\"823\",\"createdAt\":\"2024-03-12T10:47:57.933Z\"}\n\n"},{"result":{"nanos":12800,"millis":0.0128,"status":"passed"},"step":{"line":15,"prefix":"Then","index":3,"text":"status 201"}},{"result":{"nanos":4569600,"millis":4.5696,"status":"passed"},"step":{"line":16,"prefix":"*","index":4,"text":"def id = response.id"}},{"result":{"nanos":1434400,"millis":1.4344,"status":"passed"},"step":{"line":17,"prefix":"*","index":5,"text":"print id"},"stepLog":"16:17:57.776 [print] 823 \n"}],"executorName":"main","line":11,"name":"Create user","description":"","durationMillis":396.1148,"startTime":1710240477379,"failed":false,"refId":"[2:11]","endTime":1710240477776,"exampleIndex":-1},{"sectionIndex":2,"stepResults":[{"result":{"nanos":278400,"millis":0.2784,"status":"passed"},"step":{"background":true,"line":3,"prefix":"*","index":0,"text":"url 'https:\/\/reqres.in'"}},{"result":{"nanos":428300,"millis":0.4283,"status":"passed"},"step":{"line":20,"prefix":"Given","index":0,"text":"path '\/api\/users\/ + id'"}},{"result":{"nanos":482600,"millis":0.4826,"status":"passed"},"step":{"line":21,"prefix":"And","index":1,"text":"header accept = 'application\/json'"}},{"result":{"nanos":167400,"millis":0.1674,"status":"passed"},"step":{"line":22,"prefix":"And","index":2,"text":"header Content-Type = 'application\/json'"}},{"result":{"nanos":370600,"millis":0.3706,"status":"passed"},"step":{"line":23,"prefix":"And","index":3,"text":"request '{ \"name\": \"Burpheee\", \"job\": \"Berojgagaar}'"}},{"result":{"nanos":358691600,"millis":358.6916,"status":"passed"},"step":{"line":24,"prefix":"When","index":4,"text":"method PUT"},"stepLog":"16:17:57.784 request:\n1 > PUT https:\/\/reqres.in\/api\/users\/%20+%20id\n1 > accept: application\/json\n1 > Content-Type: application\/json; charset=UTF-8\n1 > Content-Length: 42\n1 > Host: reqres.in\n1 > Connection: Keep-Alive\n1 > User-Agent: Apache-HttpClient\/4.5.14 (Java\/17.0.3.1)\n1 > Accept-Encoding: gzip,deflate\n{ \"name\": \"Burpheee\", \"job\": \"Berojgagaar}\n\n16:17:58.141 response time in milliseconds: 350\n1 < 400\n1 < Date: Tue, 12 Mar 2024 10:47:58 GMT\n1 < Content-Type: text\/html; charset=utf-8\n1 < Transfer-Encoding: chunked\n1 < Connection: keep-alive\n1 < Report-To: {\"group\":\"heroku-nel\",\"max_age\":3600,\"endpoints\":[{\"url\":\"https:\/\/nel.heroku.com\/reports?ts=1710240478&sid=c4c9725f-1ab0-44d8-820f-430df2718e11&s=8qc9j1sWhwSi1KwCmqiWl8aTs%2Bd8jChkXpz2R0HcFRU%3D\"}]}\n1 < Reporting-Endpoints: heroku-nel=https:\/\/nel.heroku.com\/reports?ts=1710240478&sid=c4c9725f-1ab0-44d8-820f-430df2718e11&s=8qc9j1sWhwSi1KwCmqiWl8aTs%2Bd8jChkXpz2R0HcFRU%3D\n1 < Nel: {\"report_to\":\"heroku-nel\",\"max_age\":3600,\"success_fraction\":0.005,\"failure_fraction\":0.05,\"response_headers\":[\"Via\"]}\n1 < X-Powered-By: Express\n1 < Content-Security-Policy: default-src 'none'\n1 < X-Content-Type-Options: nosniff\n1 < Via: 1.1 vegur\n1 < CF-Cache-Status: DYNAMIC\n1 < Vary: Accept-Encoding\n1 < Server: cloudflare\n1 < CF-RAY: 8633358c1c044016-BOM\n<!DOCTYPE html>\n<html lang=\"en\">\n<head>\n<meta charset=\"utf-8\">\n<title>Error<\/title>\n<\/head>\n<body>\n<pre>Bad Request<\/pre>\n<\/body>\n<\/html>\n\n\n"},{"result":{"nanos":9352100,"errorMessage":"status code was: 400, expected: 200, response time in milliseconds: 350, url: https:\/\/reqres.in\/api\/users\/%20+%20id, response: \n<!DOCTYPE html>\n<html lang=\"en\">\n<head>\n<meta charset=\"utf-8\">\n<title>Error<\/title>\n<\/head>\n<body>\n<pre>Bad Request<\/pre>\n<\/body>\n<\/html>\n\nsrc\/test\/java\/ft.feature:25","millis":9.3521,"status":"failed"},"step":{"line":25,"prefix":"Then","index":5,"text":"status 200"},"stepLog":"16:17:58.153 src\/test\/java\/ft.feature:25\nThen status 200\nstatus code was: 400, expected: 200, response time in milliseconds: 350, url: https:\/\/reqres.in\/api\/users\/%20+%20id, response: \n<!DOCTYPE html>\n<html lang=\"en\">\n<head>\n<meta charset=\"utf-8\">\n<title>Error<\/title>\n<\/head>\n<body>\n<pre>Bad Request<\/pre>\n<\/body>\n<\/html>\n\nsrc\/test\/java\/ft.feature:25\n"},{"result":{"nanos":0,"millis":0.0,"status":"skipped"},"step":{"line":26,"prefix":"*","index":6,"text":"print response"}},{"result":{"nanos":0,"millis":0.0,"status":"skipped"},"step":{"line":27,"prefix":"And","index":7,"text":"match response.name != \"morpheus\""}}],"line":19,"description":"","durationMillis":369.771,"failed":true,"error":"status code was: 400, expected: 200, response time in milliseconds: 350, url: https:\/\/reqres.in\/api\/users\/%20+%20id, response: \n<!DOCTYPE html>\n<html lang=\"en\">\n<head>\n<meta charset=\"utf-8\">\n<title>Error<\/title>\n<\/head>\n<body>\n<pre>Bad Request<\/pre>\n<\/body>\n<\/html>\n\nsrc\/test\/java\/ft.feature:25","executorName":"main","name":"Update user","startTime":1710240477781,"refId":"[3:19]","endTime":1710240478154,"exampleIndex":-1}],"callDepth":0,"name":"API Testing","description":"","resultDate":"2024-03-12 04:17:58 pm","durationMillis":1440.3959,"passedCount":2}