{"failedCount":0,"prefixedPath":"src\/test\/java\/ft.feature","packageQualifiedName":"src.test.java.ft","loopIndex":-1,"relativePath":"src\/test\/java\/ft.feature","scenarioResults":[{"sectionIndex":0,"stepResults":[{"result":{"nanos":123401100,"millis":123.4011,"status":"passed"},"step":{"background":true,"line":3,"prefix":"*","index":0,"text":"url 'https:\/\/reqres.in'"}},{"result":{"nanos":864100,"millis":0.8641,"status":"passed"},"step":{"line":6,"prefix":"Given","index":0,"text":"path '\/api\/users?page=2'"}},{"result":{"nanos":1231478700,"millis":1231.4787,"status":"passed"},"step":{"line":7,"prefix":"When","index":1,"text":"method GET"},"stepLog":"16:19:40.044 request:\n1 > GET https:\/\/reqres.in\/api\/users%3Fpage=2\n1 > Host: reqres.in\n1 > Connection: Keep-Alive\n1 > User-Agent: Apache-HttpClient\/4.5.14 (Java\/17.0.3.1)\n1 > Accept-Encoding: gzip,deflate\n\n\n16:19:40.765 response time in milliseconds: 710\n1 < 200\n1 < Date: Tue, 12 Mar 2024 10:49:40 GMT\n1 < Content-Type: application\/json; charset=utf-8\n1 < Transfer-Encoding: chunked\n1 < Connection: keep-alive\n1 < Report-To: {\"group\":\"heroku-nel\",\"max_age\":3600,\"endpoints\":[{\"url\":\"https:\/\/nel.heroku.com\/reports?ts=1710240580&sid=c4c9725f-1ab0-44d8-820f-430df2718e11&s=mPgs7nvOo%2FK9yRTZMcSwjtkwVraTZcuxcpK26%2F%2Fmn6E%3D\"}]}\n1 < Reporting-Endpoints: heroku-nel=https:\/\/nel.heroku.com\/reports?ts=1710240580&sid=c4c9725f-1ab0-44d8-820f-430df2718e11&s=mPgs7nvOo%2FK9yRTZMcSwjtkwVraTZcuxcpK26%2F%2Fmn6E%3D\n1 < Nel: {\"report_to\":\"heroku-nel\",\"max_age\":3600,\"success_fraction\":0.005,\"failure_fraction\":0.05,\"response_headers\":[\"Via\"]}\n1 < X-Powered-By: Express\n1 < Access-Control-Allow-Origin: *\n1 < Etag: W\/\"2c1-N6Rqerxquq2kgQhL51EiSg4x0R8\"\n1 < Via: 1.1 vegur\n1 < Cache-Control: max-age=14400\n1 < CF-Cache-Status: MISS\n1 < Vary: Accept-Encoding\n1 < Server: cloudflare\n1 < CF-RAY: 8633380d2b9bf480-BOM\n{\"page\":1,\"per_page\":6,\"total\":12,\"total_pages\":2,\"data\":[{\"id\":1,\"name\":\"cerulean\",\"year\":2000,\"color\":\"#98B2D1\",\"pantone_value\":\"15-4020\"},{\"id\":2,\"name\":\"fuchsia rose\",\"year\":2001,\"color\":\"#C74375\",\"pantone_value\":\"17-2031\"},{\"id\":3,\"name\":\"true red\",\"year\":2002,\"color\":\"#BF1932\",\"pantone_value\":\"19-1664\"},{\"id\":4,\"name\":\"aqua sky\",\"year\":2003,\"color\":\"#7BC4C4\",\"pantone_value\":\"14-4811\"},{\"id\":5,\"name\":\"tigerlily\",\"year\":2004,\"color\":\"#E2583E\",\"pantone_value\":\"17-1456\"},{\"id\":6,\"name\":\"blue turquoise\",\"year\":2005,\"color\":\"#53B0AE\",\"pantone_value\":\"15-5217\"}],\"support\":{\"url\":\"https:\/\/reqres.in\/#support-heading\",\"text\":\"To keep ReqRes free, contributions towards server costs are appreciated!\"}}\n\n"},{"result":{"nanos":18800,"millis":0.0188,"status":"passed"},"step":{"line":8,"prefix":"Then","index":2,"text":"status 200"}},{"result":{"nanos":58289100,"millis":58.2891,"status":"passed"},"step":{"line":9,"prefix":"*","index":3,"text":"print response"},"stepLog":"16:19:40.854 [print] {\n  \"page\": 1,\n  \"per_page\": 6,\n  \"total\": 12,\n  \"total_pages\": 2,\n  \"data\": [\n    {\n      \"id\": 1,\n      \"name\": \"cerulean\",\n      \"year\": 2000,\n      \"color\": \"#98B2D1\",\n      \"pantone_value\": \"15-4020\"\n    },\n    {\n      \"id\": 2,\n      \"name\": \"fuchsia rose\",\n      \"year\": 2001,\n      \"color\": \"#C74375\",\n      \"pantone_value\": \"17-2031\"\n    },\n    {\n      \"id\": 3,\n      \"name\": \"true red\",\n      \"year\": 2002,\n      \"color\": \"#BF1932\",\n      \"pantone_value\": \"19-1664\"\n    },\n    {\n      \"id\": 4,\n      \"name\": \"aqua sky\",\n      \"year\": 2003,\n      \"color\": \"#7BC4C4\",\n      \"pantone_value\": \"14-4811\"\n    },\n    {\n      \"id\": 5,\n      \"name\": \"tigerlily\",\n      \"year\": 2004,\n      \"color\": \"#E2583E\",\n      \"pantone_value\": \"17-1456\"\n    },\n    {\n      \"id\": 6,\n      \"name\": \"blue turquoise\",\n      \"year\": 2005,\n      \"color\": \"#53B0AE\",\n      \"pantone_value\": \"15-5217\"\n    }\n  ],\n  \"support\": {\n    \"url\": \"https:\/\/reqres.in\/#support-heading\",\n    \"text\": \"To keep ReqRes free, contributions towards server costs are appreciated!\"\n  }\n}\n \n"}],"executorName":"main","line":5,"name":"Get data","description":"","durationMillis":1414.0518,"startTime":1710240579408,"failed":false,"refId":"[1:5]","endTime":1710240580856,"exampleIndex":-1},{"sectionIndex":1,"stepResults":[{"result":{"nanos":506900,"millis":0.5069,"status":"passed"},"step":{"background":true,"line":3,"prefix":"*","index":0,"text":"url 'https:\/\/reqres.in'"}},{"result":{"nanos":794100,"millis":0.7941,"status":"passed"},"step":{"line":12,"prefix":"Given","index":0,"text":"path '\/api\/users'"}},{"result":{"nanos":624900,"millis":0.6249,"status":"passed"},"step":{"line":13,"prefix":"And","index":1,"text":"request '{ \"name\": \"morpheus\", \"job\": \"leader\" }'"}},{"result":{"nanos":484688300,"millis":484.6883,"status":"passed"},"step":{"line":14,"prefix":"When","index":2,"text":"method POST"},"stepLog":"16:19:40.903 request:\n1 > POST https:\/\/reqres.in\/api\/users\n1 > Content-Type: text\/plain; charset=UTF-8\n1 > Content-Length: 39\n1 > Host: reqres.in\n1 > Connection: Keep-Alive\n1 > User-Agent: Apache-HttpClient\/4.5.14 (Java\/17.0.3.1)\n1 > Accept-Encoding: gzip,deflate\n{ \"name\": \"morpheus\", \"job\": \"leader\" }\n\n16:19:41.347 response time in milliseconds: 437\n1 < 201\n1 < Date: Tue, 12 Mar 2024 10:49:41 GMT\n1 < Content-Type: application\/json; charset=utf-8\n1 < Content-Length: 51\n1 < Connection: keep-alive\n1 < Report-To: {\"group\":\"heroku-nel\",\"max_age\":3600,\"endpoints\":[{\"url\":\"https:\/\/nel.heroku.com\/reports?ts=1710240581&sid=c4c9725f-1ab0-44d8-820f-430df2718e11&s=fQjnIEt%2FkQMIxe822g4MDRQ5FGKxnDO0Yo%2FeKx1KNKg%3D\"}]}\n1 < Reporting-Endpoints: heroku-nel=https:\/\/nel.heroku.com\/reports?ts=1710240581&sid=c4c9725f-1ab0-44d8-820f-430df2718e11&s=fQjnIEt%2FkQMIxe822g4MDRQ5FGKxnDO0Yo%2FeKx1KNKg%3D\n1 < Nel: {\"report_to\":\"heroku-nel\",\"max_age\":3600,\"success_fraction\":0.005,\"failure_fraction\":0.05,\"response_headers\":[\"Via\"]}\n1 < X-Powered-By: Express\n1 < Access-Control-Allow-Origin: *\n1 < Etag: W\/\"33-5783NZYYf97Ra4s7aNlpX39cWR4\"\n1 < Via: 1.1 vegur\n1 < CF-Cache-Status: DYNAMIC\n1 < Server: cloudflare\n1 < CF-RAY: 86333810bdc8f388-BOM\n{\"id\":\"604\",\"createdAt\":\"2024-03-12T10:49:41.502Z\"}\n\n"},{"result":{"nanos":20200,"millis":0.0202,"status":"passed"},"step":{"line":15,"prefix":"Then","index":3,"text":"status 201"}},{"result":{"nanos":3451300,"millis":3.4513,"status":"passed"},"step":{"line":16,"prefix":"*","index":4,"text":"def id = response.id"}},{"result":{"nanos":1503300,"millis":1.5033,"status":"passed"},"step":{"line":17,"prefix":"*","index":5,"text":"print id"},"stepLog":"16:19:41.355 [print] 604 \n"}],"executorName":"main","line":11,"name":"Create user","description":"","durationMillis":491.589,"startTime":1710240580861,"failed":false,"refId":"[2:11]","endTime":1710240581356,"exampleIndex":-1},{"sectionIndex":2,"stepResults":[{"result":{"nanos":345400,"millis":0.3454,"status":"passed"},"step":{"background":true,"line":3,"prefix":"*","index":0,"text":"url 'https:\/\/reqres.in'"}},{"result":{"nanos":496000,"millis":0.496,"status":"passed"},"step":{"line":20,"prefix":"Given","index":0,"text":"path '\/api\/users\/<id>'"}},{"result":{"nanos":11839700,"millis":11.8397,"status":"passed"},"step":{"endLine":27,"line":21,"prefix":"And","docString":"{\n\"name\": \"Mangoo\",\n\"job\": \"Tree\"\n}","index":1,"text":"request"}},{"result":{"nanos":417936800,"millis":417.9368,"status":"passed"},"step":{"line":28,"prefix":"When","index":2,"text":"method PUT"},"stepLog":"16:19:41.378 request:\n1 > PUT https:\/\/reqres.in\/api\/users\/%3Cid%3E\n1 > Content-Type: application\/json; charset=UTF-8\n1 > Content-Length: 30\n1 > Host: reqres.in\n1 > Connection: Keep-Alive\n1 > User-Agent: Apache-HttpClient\/4.5.14 (Java\/17.0.3.1)\n1 > Accept-Encoding: gzip,deflate\n{\"name\":\"Mangoo\",\"job\":\"Tree\"}\n\n16:19:41.794 response time in milliseconds: 409\n1 < 200\n1 < Date: Tue, 12 Mar 2024 10:49:42 GMT\n1 < Content-Type: application\/json; charset=utf-8\n1 < Transfer-Encoding: chunked\n1 < Connection: keep-alive\n1 < Report-To: {\"group\":\"heroku-nel\",\"max_age\":3600,\"endpoints\":[{\"url\":\"https:\/\/nel.heroku.com\/reports?ts=1710240581&sid=c4c9725f-1ab0-44d8-820f-430df2718e11&s=fQjnIEt%2FkQMIxe822g4MDRQ5FGKxnDO0Yo%2FeKx1KNKg%3D\"}]}\n1 < Reporting-Endpoints: heroku-nel=https:\/\/nel.heroku.com\/reports?ts=1710240581&sid=c4c9725f-1ab0-44d8-820f-430df2718e11&s=fQjnIEt%2FkQMIxe822g4MDRQ5FGKxnDO0Yo%2FeKx1KNKg%3D\n1 < Nel: {\"report_to\":\"heroku-nel\",\"max_age\":3600,\"success_fraction\":0.005,\"failure_fraction\":0.05,\"response_headers\":[\"Via\"]}\n1 < X-Powered-By: Express\n1 < Access-Control-Allow-Origin: *\n1 < Etag: W\/\"45-E+P1VoaEUhaV9AyhNf50P9TFEBw\"\n1 < Via: 1.1 vegur\n1 < CF-Cache-Status: DYNAMIC\n1 < Vary: Accept-Encoding\n1 < Server: cloudflare\n1 < CF-RAY: 86333813a8b48ee8-BOM\n{\"name\":\"Mangoo\",\"job\":\"Tree\",\"updatedAt\":\"2024-03-12T10:49:41.929Z\"}\n\n"},{"result":{"nanos":15500,"millis":0.0155,"status":"passed"},"step":{"line":29,"prefix":"Then","index":3,"text":"status 200"}},{"result":{"nanos":764700,"millis":0.7647,"status":"passed"},"step":{"line":30,"prefix":"And","index":4,"text":"print response"},"stepLog":"16:19:41.796 [print] {\n  \"name\": \"Mangoo\",\n  \"job\": \"Tree\",\n  \"updatedAt\": \"2024-03-12T10:49:41.929Z\"\n}\n \n"},{"result":{"nanos":21863400,"millis":21.8634,"status":"passed"},"step":{"line":31,"prefix":"And","index":5,"text":"match response.name != \"morpheus\""}},{"result":{"nanos":853400,"millis":0.8534,"status":"passed"},"step":{"line":32,"prefix":"And","index":6,"text":"match response.job != \"zion resident\""}}],"executorName":"main","line":19,"name":"Verify whether the id successfully getting Updated","description":"","durationMillis":454.1149,"startTime":1710240581363,"failed":false,"refId":"[3:19]","endTime":1710240581820,"exampleIndex":-1}],"callDepth":0,"name":"API Testing","description":"","resultDate":"2024-03-12 04:19:41 pm","durationMillis":2359.7557,"passedCount":3}