{"failedCount":0,"prefixedPath":"src\/test\/java\/ft.feature","packageQualifiedName":"src.test.java.ft","loopIndex":-1,"relativePath":"src\/test\/java\/ft.feature","scenarioResults":[{"sectionIndex":0,"stepResults":[{"result":{"nanos":123431200,"millis":123.4312,"status":"passed"},"step":{"background":true,"line":3,"prefix":"*","index":0,"text":"url 'https:\/\/reqres.in'"}},{"result":{"nanos":899500,"millis":0.8995,"status":"passed"},"step":{"line":6,"prefix":"Given","index":0,"text":"path '\/api\/users?page=2'"}},{"result":{"nanos":1000439700,"millis":1000.4397,"status":"passed"},"step":{"line":7,"prefix":"When","index":1,"text":"method GET"},"stepLog":"16:09:38.942 request:\n1 > GET https:\/\/reqres.in\/api\/users%3Fpage=2\n1 > Host: reqres.in\n1 > Connection: Keep-Alive\n1 > User-Agent: Apache-HttpClient\/4.5.14 (Java\/17.0.3.1)\n1 > Accept-Encoding: gzip,deflate\n\n\n16:09:39.560 response time in milliseconds: 609\n1 < 200\n1 < Date: Tue, 12 Mar 2024 10:39:39 GMT\n1 < Content-Type: application\/json; charset=utf-8\n1 < Transfer-Encoding: chunked\n1 < Connection: keep-alive\n1 < Report-To: {\"group\":\"heroku-nel\",\"max_age\":3600,\"endpoints\":[{\"url\":\"https:\/\/nel.heroku.com\/reports?ts=1710228493&sid=c4c9725f-1ab0-44d8-820f-430df2718e11&s=C0C0xgvdJna7FGpJVlUfeSpMvacIvnvS0JrElFJe85I%3D\"}]}\n1 < Reporting-Endpoints: heroku-nel=https:\/\/nel.heroku.com\/reports?ts=1710228493&sid=c4c9725f-1ab0-44d8-820f-430df2718e11&s=C0C0xgvdJna7FGpJVlUfeSpMvacIvnvS0JrElFJe85I%3D\n1 < Nel: {\"report_to\":\"heroku-nel\",\"max_age\":3600,\"success_fraction\":0.005,\"failure_fraction\":0.05,\"response_headers\":[\"Via\"]}\n1 < X-Powered-By: Express\n1 < Access-Control-Allow-Origin: *\n1 < Etag: W\/\"2c1-N6Rqerxquq2kgQhL51EiSg4x0R8\"\n1 < Via: 1.1 vegur\n1 < Cache-Control: max-age=14400\n1 < CF-Cache-Status: REVALIDATED\n1 < Vary: Accept-Encoding\n1 < Server: cloudflare\n1 < CF-RAY: 8633295febab856f-BOM\n{\"page\":1,\"per_page\":6,\"total\":12,\"total_pages\":2,\"data\":[{\"id\":1,\"name\":\"cerulean\",\"year\":2000,\"color\":\"#98B2D1\",\"pantone_value\":\"15-4020\"},{\"id\":2,\"name\":\"fuchsia rose\",\"year\":2001,\"color\":\"#C74375\",\"pantone_value\":\"17-2031\"},{\"id\":3,\"name\":\"true red\",\"year\":2002,\"color\":\"#BF1932\",\"pantone_value\":\"19-1664\"},{\"id\":4,\"name\":\"aqua sky\",\"year\":2003,\"color\":\"#7BC4C4\",\"pantone_value\":\"14-4811\"},{\"id\":5,\"name\":\"tigerlily\",\"year\":2004,\"color\":\"#E2583E\",\"pantone_value\":\"17-1456\"},{\"id\":6,\"name\":\"blue turquoise\",\"year\":2005,\"color\":\"#53B0AE\",\"pantone_value\":\"15-5217\"}],\"support\":{\"url\":\"https:\/\/reqres.in\/#support-heading\",\"text\":\"To keep ReqRes free, contributions towards server costs are appreciated!\"}}\n\n"},{"result":{"nanos":17900,"millis":0.0179,"status":"passed"},"step":{"line":8,"prefix":"Then","index":2,"text":"status 200"}},{"result":{"nanos":61631200,"millis":61.6312,"status":"passed"},"step":{"line":9,"prefix":"*","index":3,"text":"print response"},"stepLog":"16:09:39.646 [print] {\n  \"page\": 1,\n  \"per_page\": 6,\n  \"total\": 12,\n  \"total_pages\": 2,\n  \"data\": [\n    {\n      \"id\": 1,\n      \"name\": \"cerulean\",\n      \"year\": 2000,\n      \"color\": \"#98B2D1\",\n      \"pantone_value\": \"15-4020\"\n    },\n    {\n      \"id\": 2,\n      \"name\": \"fuchsia rose\",\n      \"year\": 2001,\n      \"color\": \"#C74375\",\n      \"pantone_value\": \"17-2031\"\n    },\n    {\n      \"id\": 3,\n      \"name\": \"true red\",\n      \"year\": 2002,\n      \"color\": \"#BF1932\",\n      \"pantone_value\": \"19-1664\"\n    },\n    {\n      \"id\": 4,\n      \"name\": \"aqua sky\",\n      \"year\": 2003,\n      \"color\": \"#7BC4C4\",\n      \"pantone_value\": \"14-4811\"\n    },\n    {\n      \"id\": 5,\n      \"name\": \"tigerlily\",\n      \"year\": 2004,\n      \"color\": \"#E2583E\",\n      \"pantone_value\": \"17-1456\"\n    },\n    {\n      \"id\": 6,\n      \"name\": \"blue turquoise\",\n      \"year\": 2005,\n      \"color\": \"#53B0AE\",\n      \"pantone_value\": \"15-5217\"\n    }\n  ],\n  \"support\": {\n    \"url\": \"https:\/\/reqres.in\/#support-heading\",\n    \"text\": \"To keep ReqRes free, contributions towards server costs are appreciated!\"\n  }\n}\n \n"}],"executorName":"main","line":5,"name":"Get data","description":"","durationMillis":1186.4195,"startTime":1710239978436,"failed":false,"refId":"[1:5]","endTime":1710239979646,"exampleIndex":-1},{"sectionIndex":1,"stepResults":[{"result":{"nanos":408000,"millis":0.408,"status":"passed"},"step":{"background":true,"line":3,"prefix":"*","index":0,"text":"url 'https:\/\/reqres.in'"}},{"result":{"nanos":656500,"millis":0.6565,"status":"passed"},"step":{"line":12,"prefix":"Given","index":0,"text":"path '\/api\/users'"}},{"result":{"nanos":513300,"millis":0.5133,"status":"passed"},"step":{"line":13,"prefix":"And","index":1,"text":"request '{ \"name\": \"morpheus\", \"job\": \"leader\" }'"}},{"result":{"nanos":405882700,"millis":405.8827,"status":"passed"},"step":{"line":14,"prefix":"When","index":2,"text":"method POST"},"stepLog":"16:09:39.698 request:\n1 > POST https:\/\/reqres.in\/api\/users\n1 > Content-Type: text\/plain; charset=UTF-8\n1 > Content-Length: 39\n1 > Host: reqres.in\n1 > Connection: Keep-Alive\n1 > User-Agent: Apache-HttpClient\/4.5.14 (Java\/17.0.3.1)\n1 > Accept-Encoding: gzip,deflate\n{ \"name\": \"morpheus\", \"job\": \"leader\" }\n\n16:09:40.063 response time in milliseconds: 361\n1 < 201\n1 < Date: Tue, 12 Mar 2024 10:39:40 GMT\n1 < Content-Type: application\/json; charset=utf-8\n1 < Content-Length: 50\n1 < Connection: keep-alive\n1 < Report-To: {\"group\":\"heroku-nel\",\"max_age\":3600,\"endpoints\":[{\"url\":\"https:\/\/nel.heroku.com\/reports?ts=1710239980&sid=c4c9725f-1ab0-44d8-820f-430df2718e11&s=%2Fezx%2BePKu19tvd%2F6Z89%2FM3l9HdorfN7uarLPxqVLT%2BE%3D\"}]}\n1 < Reporting-Endpoints: heroku-nel=https:\/\/nel.heroku.com\/reports?ts=1710239980&sid=c4c9725f-1ab0-44d8-820f-430df2718e11&s=%2Fezx%2BePKu19tvd%2F6Z89%2FM3l9HdorfN7uarLPxqVLT%2BE%3D\n1 < Nel: {\"report_to\":\"heroku-nel\",\"max_age\":3600,\"success_fraction\":0.005,\"failure_fraction\":0.05,\"response_headers\":[\"Via\"]}\n1 < X-Powered-By: Express\n1 < Access-Control-Allow-Origin: *\n1 < Etag: W\/\"32-dWT89\/G6ulrZ2wXa2TEIYc0M+JI\"\n1 < Via: 1.1 vegur\n1 < CF-Cache-Status: DYNAMIC\n1 < Server: cloudflare\n1 < CF-RAY: 863329630b20f3a1-BOM\n{\"id\":\"53\",\"createdAt\":\"2024-03-12T10:39:40.215Z\"}\n\n"},{"result":{"nanos":21400,"millis":0.0214,"status":"passed"},"step":{"line":15,"prefix":"Then","index":3,"text":"status 201"}},{"result":{"nanos":4007700,"millis":4.0077,"status":"passed"},"step":{"line":16,"prefix":"*","index":4,"text":"def id = response.id"}},{"result":{"nanos":1479800,"millis":1.4798,"status":"passed"},"step":{"line":17,"prefix":"*","index":5,"text":"print id"},"stepLog":"16:09:40.070 [print] 53 \n"}],"executorName":"main","line":11,"name":"Create user","description":"","durationMillis":412.9694,"startTime":1710239979657,"failed":false,"refId":"[2:11]","endTime":1710239980070,"exampleIndex":-1},{"sectionIndex":2,"stepResults":[{"result":{"nanos":299600,"millis":0.2996,"status":"passed"},"step":{"background":true,"line":3,"prefix":"*","index":0,"text":"url 'https:\/\/reqres.in'"}},{"result":{"nanos":580600,"millis":0.5806,"status":"passed"},"step":{"line":20,"prefix":"Given","index":0,"text":"path '\/api\/users\/ + id'"}},{"result":{"nanos":627200,"millis":0.6272,"status":"passed"},"step":{"line":21,"prefix":"And","index":1,"text":"request '{ \"name\": \"morpheus\", \"job\": \"zion resident\"}'"}},{"result":{"nanos":371807500,"millis":371.8075,"status":"passed"},"step":{"line":22,"prefix":"When","index":2,"text":"method PUT"},"stepLog":"16:09:40.081 request:\n1 > PUT https:\/\/reqres.in\/api\/users\/%20+%20id\n1 > Content-Type: text\/plain; charset=UTF-8\n1 > Content-Length: 45\n1 > Host: reqres.in\n1 > Connection: Keep-Alive\n1 > User-Agent: Apache-HttpClient\/4.5.14 (Java\/17.0.3.1)\n1 > Accept-Encoding: gzip,deflate\n{ \"name\": \"morpheus\", \"job\": \"zion resident\"}\n\n16:09:40.451 response time in milliseconds: 365\n1 < 200\n1 < Date: Tue, 12 Mar 2024 10:39:40 GMT\n1 < Content-Type: application\/json; charset=utf-8\n1 < Content-Length: 40\n1 < Connection: keep-alive\n1 < Report-To: {\"group\":\"heroku-nel\",\"max_age\":3600,\"endpoints\":[{\"url\":\"https:\/\/nel.heroku.com\/reports?ts=1710239980&sid=c4c9725f-1ab0-44d8-820f-430df2718e11&s=%2Fezx%2BePKu19tvd%2F6Z89%2FM3l9HdorfN7uarLPxqVLT%2BE%3D\"}]}\n1 < Reporting-Endpoints: heroku-nel=https:\/\/nel.heroku.com\/reports?ts=1710239980&sid=c4c9725f-1ab0-44d8-820f-430df2718e11&s=%2Fezx%2BePKu19tvd%2F6Z89%2FM3l9HdorfN7uarLPxqVLT%2BE%3D\n1 < Nel: {\"report_to\":\"heroku-nel\",\"max_age\":3600,\"success_fraction\":0.005,\"failure_fraction\":0.05,\"response_headers\":[\"Via\"]}\n1 < X-Powered-By: Express\n1 < Access-Control-Allow-Origin: *\n1 < Etag: W\/\"28-6laZmZFjC0\/771buH0+sbn0JAho\"\n1 < Via: 1.1 vegur\n1 < CF-Cache-Status: DYNAMIC\n1 < Vary: Accept-Encoding\n1 < Server: cloudflare\n1 < CF-RAY: 8633296578451bfc-BOM\n{\"updatedAt\":\"2024-03-12T10:39:40.606Z\"}\n\n"},{"result":{"nanos":12300,"millis":0.0123,"status":"passed"},"step":{"line":23,"prefix":"Then","index":3,"text":"status 200"}},{"result":{"nanos":608400,"millis":0.6084,"status":"passed"},"step":{"line":24,"prefix":"*","index":4,"text":"print response"},"stepLog":"16:09:40.453 [print] {\n  \"updatedAt\": \"2024-03-12T10:39:40.606Z\"\n}\n \n"}],"executorName":"main","line":19,"name":"Update user","description":"","durationMillis":373.9356,"startTime":1710239980078,"failed":false,"refId":"[3:19]","endTime":1710239980453,"exampleIndex":-1}],"callDepth":0,"name":"API Testing","description":"","resultDate":"2024-03-12 04:09:40 pm","durationMillis":1973.3245,"passedCount":3}