{"failedCount":0,"prefixedPath":"src\/test\/java\/ft.feature","packageQualifiedName":"src.test.java.ft","loopIndex":-1,"relativePath":"src\/test\/java\/ft.feature","scenarioResults":[{"sectionIndex":0,"stepResults":[{"result":{"nanos":60348300,"millis":60.3483,"status":"passed"},"step":{"background":true,"line":3,"prefix":"*","index":0,"text":"url 'https:\/\/reqres.in'"}},{"result":{"nanos":644400,"millis":0.6444,"status":"passed"},"step":{"line":6,"prefix":"Given","index":0,"text":"path '\/api\/users?page=2'"}},{"result":{"nanos":823984600,"millis":823.9846,"status":"passed"},"step":{"line":7,"prefix":"When","index":1,"text":"method GET"},"stepLog":"16:27:33.094 request:\n1 > GET https:\/\/reqres.in\/api\/users%3Fpage=2\n1 > Host: reqres.in\n1 > Connection: Keep-Alive\n1 > User-Agent: Apache-HttpClient\/4.5.14 (Java\/17.0.3.1)\n1 > Accept-Encoding: gzip,deflate\n\n\n16:27:33.592 response time in milliseconds: 491\n1 < 200\n1 < Date: Tue, 12 Mar 2024 10:57:33 GMT\n1 < Content-Type: application\/json; charset=utf-8\n1 < Transfer-Encoding: chunked\n1 < Connection: keep-alive\n1 < Report-To: {\"group\":\"heroku-nel\",\"max_age\":3600,\"endpoints\":[{\"url\":\"https:\/\/nel.heroku.com\/reports?ts=1710126852&sid=c4c9725f-1ab0-44d8-820f-430df2718e11&s=3v52PBlb7XAJJ3pgZXyeNyp9CY725gKnArTd20wePyY%3D\"}]}\n1 < Reporting-Endpoints: heroku-nel=https:\/\/nel.heroku.com\/reports?ts=1710126852&sid=c4c9725f-1ab0-44d8-820f-430df2718e11&s=3v52PBlb7XAJJ3pgZXyeNyp9CY725gKnArTd20wePyY%3D\n1 < Nel: {\"report_to\":\"heroku-nel\",\"max_age\":3600,\"success_fraction\":0.005,\"failure_fraction\":0.05,\"response_headers\":[\"Via\"]}\n1 < X-Powered-By: Express\n1 < Access-Control-Allow-Origin: *\n1 < Etag: W\/\"2c1-N6Rqerxquq2kgQhL51EiSg4x0R8\"\n1 < Via: 1.1 vegur\n1 < Cache-Control: max-age=14400\n1 < CF-Cache-Status: HIT\n1 < Age: 1267\n1 < Vary: Accept-Encoding\n1 < Server: cloudflare\n1 < CF-RAY: 8633439a091c6ec5-BOM\n{\"page\":1,\"per_page\":6,\"total\":12,\"total_pages\":2,\"data\":[{\"id\":1,\"name\":\"cerulean\",\"year\":2000,\"color\":\"#98B2D1\",\"pantone_value\":\"15-4020\"},{\"id\":2,\"name\":\"fuchsia rose\",\"year\":2001,\"color\":\"#C74375\",\"pantone_value\":\"17-2031\"},{\"id\":3,\"name\":\"true red\",\"year\":2002,\"color\":\"#BF1932\",\"pantone_value\":\"19-1664\"},{\"id\":4,\"name\":\"aqua sky\",\"year\":2003,\"color\":\"#7BC4C4\",\"pantone_value\":\"14-4811\"},{\"id\":5,\"name\":\"tigerlily\",\"year\":2004,\"color\":\"#E2583E\",\"pantone_value\":\"17-1456\"},{\"id\":6,\"name\":\"blue turquoise\",\"year\":2005,\"color\":\"#53B0AE\",\"pantone_value\":\"15-5217\"}],\"support\":{\"url\":\"https:\/\/reqres.in\/#support-heading\",\"text\":\"To keep ReqRes free, contributions towards server costs are appreciated!\"}}\n\n"},{"result":{"nanos":60300,"millis":0.0603,"status":"passed"},"step":{"line":8,"prefix":"Then","index":2,"text":"status 200"}},{"result":{"nanos":57334700,"millis":57.3347,"status":"passed"},"step":{"line":9,"prefix":"*","index":3,"text":"print response"},"stepLog":"16:27:33.680 [print] {\n  \"page\": 1,\n  \"per_page\": 6,\n  \"total\": 12,\n  \"total_pages\": 2,\n  \"data\": [\n    {\n      \"id\": 1,\n      \"name\": \"cerulean\",\n      \"year\": 2000,\n      \"color\": \"#98B2D1\",\n      \"pantone_value\": \"15-4020\"\n    },\n    {\n      \"id\": 2,\n      \"name\": \"fuchsia rose\",\n      \"year\": 2001,\n      \"color\": \"#C74375\",\n      \"pantone_value\": \"17-2031\"\n    },\n    {\n      \"id\": 3,\n      \"name\": \"true red\",\n      \"year\": 2002,\n      \"color\": \"#BF1932\",\n      \"pantone_value\": \"19-1664\"\n    },\n    {\n      \"id\": 4,\n      \"name\": \"aqua sky\",\n      \"year\": 2003,\n      \"color\": \"#7BC4C4\",\n      \"pantone_value\": \"14-4811\"\n    },\n    {\n      \"id\": 5,\n      \"name\": \"tigerlily\",\n      \"year\": 2004,\n      \"color\": \"#E2583E\",\n      \"pantone_value\": \"17-1456\"\n    },\n    {\n      \"id\": 6,\n      \"name\": \"blue turquoise\",\n      \"year\": 2005,\n      \"color\": \"#53B0AE\",\n      \"pantone_value\": \"15-5217\"\n    }\n  ],\n  \"support\": {\n    \"url\": \"https:\/\/reqres.in\/#support-heading\",\n    \"text\": \"To keep ReqRes free, contributions towards server costs are appreciated!\"\n  }\n}\n \n"}],"executorName":"main","line":5,"name":"Get all users data","description":"","durationMillis":942.3723,"startTime":1710241052719,"failed":false,"refId":"[1:5]","endTime":1710241053682,"exampleIndex":-1},{"sectionIndex":1,"stepResults":[{"result":{"nanos":397200,"millis":0.3972,"status":"passed"},"step":{"background":true,"line":3,"prefix":"*","index":0,"text":"url 'https:\/\/reqres.in'"}},{"result":{"nanos":734300,"millis":0.7343,"status":"passed"},"step":{"line":12,"prefix":"Given","index":0,"text":"path '\/api\/users'"}},{"result":{"nanos":1081500,"millis":1.0815,"status":"passed"},"step":{"line":13,"prefix":"And","index":1,"text":"request '{ \"name\": \"morpheus\", \"job\": \"leader\" }'"}},{"result":{"nanos":575593300,"millis":575.5933,"status":"passed"},"step":{"line":14,"prefix":"When","index":2,"text":"method POST"},"stepLog":"16:27:33.728 request:\n1 > POST https:\/\/reqres.in\/api\/users\n1 > Content-Type: text\/plain; charset=UTF-8\n1 > Content-Length: 39\n1 > Host: reqres.in\n1 > Connection: Keep-Alive\n1 > User-Agent: Apache-HttpClient\/4.5.14 (Java\/17.0.3.1)\n1 > Accept-Encoding: gzip,deflate\n{ \"name\": \"morpheus\", \"job\": \"leader\" }\n\n16:27:34.262 response time in milliseconds: 533\n1 < 201\n1 < Date: Tue, 12 Mar 2024 10:57:34 GMT\n1 < Content-Type: application\/json; charset=utf-8\n1 < Content-Length: 51\n1 < Connection: keep-alive\n1 < Report-To: {\"group\":\"heroku-nel\",\"max_age\":3600,\"endpoints\":[{\"url\":\"https:\/\/nel.heroku.com\/reports?ts=1710241054&sid=c4c9725f-1ab0-44d8-820f-430df2718e11&s=gTIRhQr2GF9u0LpxsCQYIYTe8a%2FgPhGC0VnUyBkQhj8%3D\"}]}\n1 < Reporting-Endpoints: heroku-nel=https:\/\/nel.heroku.com\/reports?ts=1710241054&sid=c4c9725f-1ab0-44d8-820f-430df2718e11&s=gTIRhQr2GF9u0LpxsCQYIYTe8a%2FgPhGC0VnUyBkQhj8%3D\n1 < Nel: {\"report_to\":\"heroku-nel\",\"max_age\":3600,\"success_fraction\":0.005,\"failure_fraction\":0.05,\"response_headers\":[\"Via\"]}\n1 < X-Powered-By: Express\n1 < Access-Control-Allow-Origin: *\n1 < Etag: W\/\"33-wis4rsISHobn2nhLwZAk6tbZO4Q\"\n1 < Via: 1.1 vegur\n1 < CF-Cache-Status: DYNAMIC\n1 < Server: cloudflare\n1 < CF-RAY: 8633439ccd7ff4b0-BOM\n{\"id\":\"560\",\"createdAt\":\"2024-03-12T10:57:34.416Z\"}\n\n"},{"result":{"nanos":26200,"millis":0.0262,"status":"passed"},"step":{"line":15,"prefix":"Then","index":3,"text":"status 201"}},{"result":{"nanos":6288500,"millis":6.2885,"status":"passed"},"step":{"line":16,"prefix":"*","index":4,"text":"def id = response.id"}},{"result":{"nanos":1927100,"millis":1.9271,"status":"passed"},"step":{"line":17,"prefix":"*","index":5,"text":"print id"},"stepLog":"16:27:34.276 [print] 560 \n"}],"executorName":"main","line":11,"name":"Create new user","description":"","durationMillis":586.0481,"startTime":1710241053688,"failed":false,"refId":"[2:11]","endTime":1710241054276,"exampleIndex":-1},{"sectionIndex":2,"stepResults":[{"result":{"nanos":331300,"millis":0.3313,"status":"passed"},"step":{"background":true,"line":3,"prefix":"*","index":0,"text":"url 'https:\/\/reqres.in'"}},{"result":{"nanos":705000,"millis":0.705,"status":"passed"},"step":{"line":20,"prefix":"Given","index":0,"text":"path '\/api\/users\/<id>'"}},{"result":{"nanos":18063200,"millis":18.0632,"status":"passed"},"step":{"endLine":25,"line":21,"prefix":"And","docString":"{ \"name\": \"Mark\",\n\"job\": \"Teacher\"}","index":1,"text":"request"}},{"result":{"nanos":609623500,"millis":609.6235,"status":"passed"},"step":{"line":26,"prefix":"When","index":2,"text":"method PUT"},"stepLog":"16:27:34.304 request:\n1 > PUT https:\/\/reqres.in\/api\/users\/%3Cid%3E\n1 > Content-Type: application\/json; charset=UTF-8\n1 > Content-Length: 31\n1 > Host: reqres.in\n1 > Connection: Keep-Alive\n1 > User-Agent: Apache-HttpClient\/4.5.14 (Java\/17.0.3.1)\n1 > Accept-Encoding: gzip,deflate\n{\"name\":\"Mark\",\"job\":\"Teacher\"}\n\n16:27:34.910 response time in milliseconds: 601\n1 < 200\n1 < Date: Tue, 12 Mar 2024 10:57:35 GMT\n1 < Content-Type: application\/json; charset=utf-8\n1 < Transfer-Encoding: chunked\n1 < Connection: keep-alive\n1 < Report-To: {\"group\":\"heroku-nel\",\"max_age\":3600,\"endpoints\":[{\"url\":\"https:\/\/nel.heroku.com\/reports?ts=1710241055&sid=c4c9725f-1ab0-44d8-820f-430df2718e11&s=ZkJuFQl%2B%2FysBxysCoxMU4FAesaBvOb7iaLojZY1vE4k%3D\"}]}\n1 < Reporting-Endpoints: heroku-nel=https:\/\/nel.heroku.com\/reports?ts=1710241055&sid=c4c9725f-1ab0-44d8-820f-430df2718e11&s=ZkJuFQl%2B%2FysBxysCoxMU4FAesaBvOb7iaLojZY1vE4k%3D\n1 < Nel: {\"report_to\":\"heroku-nel\",\"max_age\":3600,\"success_fraction\":0.005,\"failure_fraction\":0.05,\"response_headers\":[\"Via\"]}\n1 < X-Powered-By: Express\n1 < Access-Control-Allow-Origin: *\n1 < Etag: W\/\"46-lRYkq8vZ7dFBx1n3FBJBOTBxpgc\"\n1 < Via: 1.1 vegur\n1 < CF-Cache-Status: DYNAMIC\n1 < Vary: Accept-Encoding\n1 < Server: cloudflare\n1 < CF-RAY: 863343a0b8ec3a99-BOM\n{\"name\":\"Mark\",\"job\":\"Teacher\",\"updatedAt\":\"2024-03-12T10:57:35.030Z\"}\n\n"},{"result":{"nanos":29900,"millis":0.0299,"status":"passed"},"step":{"line":27,"prefix":"Then","index":3,"text":"status 200"}},{"result":{"nanos":1544800,"millis":1.5448,"status":"passed"},"step":{"line":28,"prefix":"And","index":4,"text":"print response"},"stepLog":"16:27:34.913 [print] {\n  \"name\": \"Mark\",\n  \"job\": \"Teacher\",\n  \"updatedAt\": \"2024-03-12T10:57:35.030Z\"\n}\n \n"},{"result":{"nanos":34757200,"millis":34.7572,"status":"passed"},"step":{"line":29,"prefix":"And","index":5,"text":"match response.name != \"morpheus\""}},{"result":{"nanos":982900,"millis":0.9829,"status":"passed"},"step":{"line":30,"prefix":"And","index":6,"text":"match response.job != \"zion resident\""}}],"executorName":"main","line":19,"name":"Update User","description":"","durationMillis":666.0378,"startTime":1710241054283,"failed":false,"refId":"[3:19]","endTime":1710241054951,"exampleIndex":-1},{"sectionIndex":3,"stepResults":[{"result":{"nanos":239100,"millis":0.2391,"status":"passed"},"step":{"background":true,"line":3,"prefix":"*","index":0,"text":"url 'https:\/\/reqres.in'"}},{"result":{"nanos":156500,"millis":0.1565,"status":"passed"},"step":{"line":33,"prefix":"Given","index":0,"text":"path '\/api\/users\/<id>'"}},{"result":{"nanos":529485800,"millis":529.4858,"status":"passed"},"step":{"line":34,"prefix":"When","index":1,"text":"method DELETE"},"stepLog":"16:27:34.958 request:\n1 > DELETE https:\/\/reqres.in\/api\/users\/%3Cid%3E\n1 > Host: reqres.in\n1 > Connection: Keep-Alive\n1 > User-Agent: Apache-HttpClient\/4.5.14 (Java\/17.0.3.1)\n1 > Accept-Encoding: gzip,deflate\n\n\n16:27:35.483 response time in milliseconds: 520\n1 < 204\n1 < Date: Tue, 12 Mar 2024 10:57:35 GMT\n1 < Content-Length: 0\n1 < Connection: keep-alive\n1 < Report-To: {\"group\":\"heroku-nel\",\"max_age\":3600,\"endpoints\":[{\"url\":\"https:\/\/nel.heroku.com\/reports?ts=1710241055&sid=c4c9725f-1ab0-44d8-820f-430df2718e11&s=ZkJuFQl%2B%2FysBxysCoxMU4FAesaBvOb7iaLojZY1vE4k%3D\"}]}\n1 < Reporting-Endpoints: heroku-nel=https:\/\/nel.heroku.com\/reports?ts=1710241055&sid=c4c9725f-1ab0-44d8-820f-430df2718e11&s=ZkJuFQl%2B%2FysBxysCoxMU4FAesaBvOb7iaLojZY1vE4k%3D\n1 < Nel: {\"report_to\":\"heroku-nel\",\"max_age\":3600,\"success_fraction\":0.005,\"failure_fraction\":0.05,\"response_headers\":[\"Via\"]}\n1 < X-Powered-By: Express\n1 < Access-Control-Allow-Origin: *\n1 < Etag: W\/\"2-vyGp6PvFo4RvsFtPoIWeCReyIC8\"\n1 < Via: 1.1 vegur\n1 < CF-Cache-Status: DYNAMIC\n1 < Server: cloudflare\n1 < CF-RAY: 863343a43a573dfe-BOM\n\n\n"},{"result":{"nanos":32000,"millis":0.032,"status":"passed"},"step":{"line":35,"prefix":"Then","index":2,"text":"status 204"}}],"executorName":"main","line":32,"name":"Delete user","description":"","durationMillis":529.9134,"startTime":1710241054954,"failed":false,"refId":"[4:32]","endTime":1710241055483,"exampleIndex":-1}],"callDepth":0,"name":"API Testing","description":"","resultDate":"2024-03-12 04:27:35 pm","durationMillis":2724.3716,"passedCount":4}