{"failedCount":0,"prefixedPath":"src\/test\/java\/ft.feature","packageQualifiedName":"src.test.java.ft","loopIndex":-1,"relativePath":"src\/test\/java\/ft.feature","scenarioResults":[{"sectionIndex":0,"stepResults":[{"result":{"nanos":67076700,"millis":67.0767,"status":"passed"},"step":{"background":true,"line":3,"prefix":"*","index":0,"text":"url 'https:\/\/reqres.in'"}},{"result":{"nanos":739200,"millis":0.7392,"status":"passed"},"step":{"line":6,"prefix":"Given","index":0,"text":"path '\/api\/users?page=2'"}},{"result":{"nanos":1323941400,"millis":1323.9414,"status":"passed"},"step":{"line":7,"prefix":"When","index":1,"text":"method GET"},"stepLog":"19:20:00.486 request:\n1 > GET https:\/\/reqres.in\/api\/users%3Fpage=2\n1 > Host: reqres.in\n1 > Connection: Keep-Alive\n1 > User-Agent: Apache-HttpClient\/4.5.14 (Java\/17.0.3.1)\n1 > Accept-Encoding: gzip,deflate\n\n\n19:20:01.489 response time in milliseconds: 993\n1 < 200\n1 < Date: Tue, 12 Mar 2024 13:50:01 GMT\n1 < Content-Type: application\/json; charset=utf-8\n1 < Transfer-Encoding: chunked\n1 < Connection: keep-alive\n1 < Report-To: {\"group\":\"heroku-nel\",\"max_age\":3600,\"endpoints\":[{\"url\":\"https:\/\/nel.heroku.com\/reports?ts=1709204095&sid=c4c9725f-1ab0-44d8-820f-430df2718e11&s=XMcAZbVGcGMoYZGWC5KsETqZxxWuA2hid5WEWtBgPpw%3D\"}]}\n1 < Reporting-Endpoints: heroku-nel=https:\/\/nel.heroku.com\/reports?ts=1709204095&sid=c4c9725f-1ab0-44d8-820f-430df2718e11&s=XMcAZbVGcGMoYZGWC5KsETqZxxWuA2hid5WEWtBgPpw%3D\n1 < Nel: {\"report_to\":\"heroku-nel\",\"max_age\":3600,\"success_fraction\":0.005,\"failure_fraction\":0.05,\"response_headers\":[\"Via\"]}\n1 < X-Powered-By: Express\n1 < Access-Control-Allow-Origin: *\n1 < Etag: W\/\"2c1-N6Rqerxquq2kgQhL51EiSg4x0R8\"\n1 < Via: 1.1 vegur\n1 < Cache-Control: max-age=14400\n1 < CF-Cache-Status: REVALIDATED\n1 < Vary: Accept-Encoding\n1 < Server: cloudflare\n1 < CF-RAY: 8634403acabc3ae5-BOM\n{\"page\":1,\"per_page\":6,\"total\":12,\"total_pages\":2,\"data\":[{\"id\":1,\"name\":\"cerulean\",\"year\":2000,\"color\":\"#98B2D1\",\"pantone_value\":\"15-4020\"},{\"id\":2,\"name\":\"fuchsia rose\",\"year\":2001,\"color\":\"#C74375\",\"pantone_value\":\"17-2031\"},{\"id\":3,\"name\":\"true red\",\"year\":2002,\"color\":\"#BF1932\",\"pantone_value\":\"19-1664\"},{\"id\":4,\"name\":\"aqua sky\",\"year\":2003,\"color\":\"#7BC4C4\",\"pantone_value\":\"14-4811\"},{\"id\":5,\"name\":\"tigerlily\",\"year\":2004,\"color\":\"#E2583E\",\"pantone_value\":\"17-1456\"},{\"id\":6,\"name\":\"blue turquoise\",\"year\":2005,\"color\":\"#53B0AE\",\"pantone_value\":\"15-5217\"}],\"support\":{\"url\":\"https:\/\/reqres.in\/#support-heading\",\"text\":\"To keep ReqRes free, contributions towards server costs are appreciated!\"}}\n\n"},{"result":{"nanos":18400,"millis":0.0184,"status":"passed"},"step":{"line":8,"prefix":"Then","index":2,"text":"status 200"}},{"result":{"nanos":90899800,"millis":90.8998,"status":"passed"},"step":{"line":9,"prefix":"*","index":3,"text":"print response"},"stepLog":"19:20:01.611 [print] {\n  \"page\": 1,\n  \"per_page\": 6,\n  \"total\": 12,\n  \"total_pages\": 2,\n  \"data\": [\n    {\n      \"id\": 1,\n      \"name\": \"cerulean\",\n      \"year\": 2000,\n      \"color\": \"#98B2D1\",\n      \"pantone_value\": \"15-4020\"\n    },\n    {\n      \"id\": 2,\n      \"name\": \"fuchsia rose\",\n      \"year\": 2001,\n      \"color\": \"#C74375\",\n      \"pantone_value\": \"17-2031\"\n    },\n    {\n      \"id\": 3,\n      \"name\": \"true red\",\n      \"year\": 2002,\n      \"color\": \"#BF1932\",\n      \"pantone_value\": \"19-1664\"\n    },\n    {\n      \"id\": 4,\n      \"name\": \"aqua sky\",\n      \"year\": 2003,\n      \"color\": \"#7BC4C4\",\n      \"pantone_value\": \"14-4811\"\n    },\n    {\n      \"id\": 5,\n      \"name\": \"tigerlily\",\n      \"year\": 2004,\n      \"color\": \"#E2583E\",\n      \"pantone_value\": \"17-1456\"\n    },\n    {\n      \"id\": 6,\n      \"name\": \"blue turquoise\",\n      \"year\": 2005,\n      \"color\": \"#53B0AE\",\n      \"pantone_value\": \"15-5217\"\n    }\n  ],\n  \"support\": {\n    \"url\": \"https:\/\/reqres.in\/#support-heading\",\n    \"text\": \"To keep ReqRes free, contributions towards server costs are appreciated!\"\n  }\n}\n \n"}],"executorName":"main","line":5,"name":"Get all users data","description":"","durationMillis":1482.6755,"startTime":1710251400112,"failed":false,"refId":"[1:5]","endTime":1710251401613,"exampleIndex":-1},{"sectionIndex":1,"stepResults":[{"result":{"nanos":593000,"millis":0.593,"status":"passed"},"step":{"background":true,"line":3,"prefix":"*","index":0,"text":"url 'https:\/\/reqres.in'"}},{"result":{"nanos":673500,"millis":0.6735,"status":"passed"},"step":{"line":12,"prefix":"Given","index":0,"text":"path '\/api\/users'"}},{"result":{"nanos":513800,"millis":0.5138,"status":"passed"},"step":{"line":13,"prefix":"And","index":1,"text":"request '{ \"name\": \"morpheus\", \"job\": \"leader\" }'"}},{"result":{"nanos":546437900,"millis":546.4379,"status":"passed"},"step":{"line":14,"prefix":"When","index":2,"text":"method POST"},"stepLog":"19:20:01.689 request:\n1 > POST https:\/\/reqres.in\/api\/users\n1 > Content-Type: text\/plain; charset=UTF-8\n1 > Content-Length: 39\n1 > Host: reqres.in\n1 > Connection: Keep-Alive\n1 > User-Agent: Apache-HttpClient\/4.5.14 (Java\/17.0.3.1)\n1 > Accept-Encoding: gzip,deflate\n{ \"name\": \"morpheus\", \"job\": \"leader\" }\n\n19:20:02.169 response time in milliseconds: 471\n1 < 201\n1 < Date: Tue, 12 Mar 2024 13:50:02 GMT\n1 < Content-Type: application\/json; charset=utf-8\n1 < Content-Length: 51\n1 < Connection: keep-alive\n1 < Report-To: {\"group\":\"heroku-nel\",\"max_age\":3600,\"endpoints\":[{\"url\":\"https:\/\/nel.heroku.com\/reports?ts=1710251402&sid=c4c9725f-1ab0-44d8-820f-430df2718e11&s=%2FV41bVPwGO3yMRM%2F7OYTrNBPfwcf4dLRWIMf%2B6pO5Ko%3D\"}]}\n1 < Reporting-Endpoints: heroku-nel=https:\/\/nel.heroku.com\/reports?ts=1710251402&sid=c4c9725f-1ab0-44d8-820f-430df2718e11&s=%2FV41bVPwGO3yMRM%2F7OYTrNBPfwcf4dLRWIMf%2B6pO5Ko%3D\n1 < Nel: {\"report_to\":\"heroku-nel\",\"max_age\":3600,\"success_fraction\":0.005,\"failure_fraction\":0.05,\"response_headers\":[\"Via\"]}\n1 < X-Powered-By: Express\n1 < Access-Control-Allow-Origin: *\n1 < Etag: W\/\"33-FgVbzAzouA1u4LhJdQR3ynZvXe0\"\n1 < Via: 1.1 vegur\n1 < CF-Cache-Status: DYNAMIC\n1 < Server: cloudflare\n1 < CF-RAY: 8634403f48743f04-BOM\n{\"id\":\"398\",\"createdAt\":\"2024-03-12T13:50:02.324Z\"}\n\n"},{"result":{"nanos":20500,"millis":0.0205,"status":"passed"},"step":{"line":15,"prefix":"Then","index":3,"text":"status 201"}},{"result":{"nanos":6416700,"millis":6.4167,"status":"passed"},"step":{"line":16,"prefix":"*","index":4,"text":"def id = response.id"}},{"result":{"nanos":1687100,"millis":1.6871,"status":"passed"},"step":{"line":17,"prefix":"*","index":5,"text":"print id"},"stepLog":"19:20:02.179 [print] 398 \n"}],"executorName":"main","line":11,"name":"Create new user","description":"","durationMillis":556.3425,"startTime":1710251401621,"failed":false,"refId":"[2:11]","endTime":1710251402180,"exampleIndex":-1},{"sectionIndex":2,"stepResults":[{"result":{"nanos":359900,"millis":0.3599,"status":"passed"},"step":{"background":true,"line":3,"prefix":"*","index":0,"text":"url 'https:\/\/reqres.in'"}},{"result":{"nanos":643700,"millis":0.6437,"status":"passed"},"step":{"line":20,"prefix":"Given","index":0,"text":"path '\/api\/users\/<id>'"}},{"result":{"nanos":19754200,"millis":19.7542,"status":"passed"},"step":{"endLine":25,"line":21,"prefix":"And","docString":"{ \"name\": \"Mark\",\n\"job\": \"Teacher\"}","index":1,"text":"request"}},{"result":{"nanos":506590800,"millis":506.5908,"status":"passed"},"step":{"line":26,"prefix":"When","index":2,"text":"method PUT"},"stepLog":"19:20:02.210 request:\n1 > PUT https:\/\/reqres.in\/api\/users\/%3Cid%3E\n1 > Content-Type: application\/json; charset=UTF-8\n1 > Content-Length: 31\n1 > Host: reqres.in\n1 > Connection: Keep-Alive\n1 > User-Agent: Apache-HttpClient\/4.5.14 (Java\/17.0.3.1)\n1 > Accept-Encoding: gzip,deflate\n{\"name\":\"Mark\",\"job\":\"Teacher\"}\n\n19:20:02.714 response time in milliseconds: 499\n1 < 200\n1 < Date: Tue, 12 Mar 2024 13:50:02 GMT\n1 < Content-Type: application\/json; charset=utf-8\n1 < Transfer-Encoding: chunked\n1 < Connection: keep-alive\n1 < Report-To: {\"group\":\"heroku-nel\",\"max_age\":3600,\"endpoints\":[{\"url\":\"https:\/\/nel.heroku.com\/reports?ts=1710251402&sid=c4c9725f-1ab0-44d8-820f-430df2718e11&s=%2FV41bVPwGO3yMRM%2F7OYTrNBPfwcf4dLRWIMf%2B6pO5Ko%3D\"}]}\n1 < Reporting-Endpoints: heroku-nel=https:\/\/nel.heroku.com\/reports?ts=1710251402&sid=c4c9725f-1ab0-44d8-820f-430df2718e11&s=%2FV41bVPwGO3yMRM%2F7OYTrNBPfwcf4dLRWIMf%2B6pO5Ko%3D\n1 < Nel: {\"report_to\":\"heroku-nel\",\"max_age\":3600,\"success_fraction\":0.005,\"failure_fraction\":0.05,\"response_headers\":[\"Via\"]}\n1 < X-Powered-By: Express\n1 < Access-Control-Allow-Origin: *\n1 < Etag: W\/\"46-R4g32t5Gy0fqrUJ1dygnS1OUch4\"\n1 < Via: 1.1 vegur\n1 < CF-Cache-Status: DYNAMIC\n1 < Vary: Accept-Encoding\n1 < Server: cloudflare\n1 < CF-RAY: 86344042bdc14010-BOM\n{\"name\":\"Mark\",\"job\":\"Teacher\",\"updatedAt\":\"2024-03-12T13:50:02.863Z\"}\n\n"},{"result":{"nanos":19900,"millis":0.0199,"status":"passed"},"step":{"line":27,"prefix":"Then","index":3,"text":"status 200"}},{"result":{"nanos":1139800,"millis":1.1398,"status":"passed"},"step":{"line":28,"prefix":"And","index":4,"text":"print response"},"stepLog":"19:20:02.717 [print] {\n  \"name\": \"Mark\",\n  \"job\": \"Teacher\",\n  \"updatedAt\": \"2024-03-12T13:50:02.863Z\"\n}\n \n"},{"result":{"nanos":30846800,"millis":30.8468,"status":"passed"},"step":{"line":29,"prefix":"And","index":5,"text":"match response.name != \"morpheus\""}},{"result":{"nanos":1316600,"millis":1.3166,"status":"passed"},"step":{"line":30,"prefix":"And","index":6,"text":"match response.job != \"zion resident\""}}],"executorName":"main","line":19,"name":"Update User","description":"","durationMillis":560.6717,"startTime":1710251402187,"failed":false,"refId":"[3:19]","endTime":1710251402749,"exampleIndex":-1}],"callDepth":0,"name":"API Testing","description":"","resultDate":"2024-03-12 07:20:02 pm","durationMillis":2599.6897,"passedCount":3}