{"failedCount":1,"prefixedPath":"src\/test\/java\/ft.feature","packageQualifiedName":"src.test.java.ft","loopIndex":-1,"relativePath":"src\/test\/java\/ft.feature","scenarioResults":[{"sectionIndex":0,"stepResults":[{"result":{"nanos":116799100,"millis":116.7991,"status":"passed"},"step":{"background":true,"line":3,"prefix":"*","index":0,"text":"url 'https:\/\/reqres.in'"}},{"result":{"nanos":1146000,"millis":1.146,"status":"passed"},"step":{"line":6,"prefix":"Given","index":0,"text":"path '\/api\/users?page=2'"}},{"result":{"nanos":1193196900,"millis":1193.1969,"status":"passed"},"step":{"line":7,"prefix":"When","index":1,"text":"method GET"},"stepLog":"15:32:02.690 request:\n1 > GET https:\/\/reqres.in\/api\/users%3Fpage=2\n1 > Host: reqres.in\n1 > Connection: Keep-Alive\n1 > User-Agent: Apache-HttpClient\/4.5.14 (Java\/17.0.3.1)\n1 > Accept-Encoding: gzip,deflate\n\n\n15:32:03.333 response time in milliseconds: 635\n1 < 200\n1 < Date: Tue, 12 Mar 2024 10:02:03 GMT\n1 < Content-Type: application\/json; charset=utf-8\n1 < Transfer-Encoding: chunked\n1 < Connection: keep-alive\n1 < Report-To: {\"group\":\"heroku-nel\",\"max_age\":3600,\"endpoints\":[{\"url\":\"https:\/\/nel.heroku.com\/reports?ts=1709204095&sid=c4c9725f-1ab0-44d8-820f-430df2718e11&s=XMcAZbVGcGMoYZGWC5KsETqZxxWuA2hid5WEWtBgPpw%3D\"}]}\n1 < Reporting-Endpoints: heroku-nel=https:\/\/nel.heroku.com\/reports?ts=1709204095&sid=c4c9725f-1ab0-44d8-820f-430df2718e11&s=XMcAZbVGcGMoYZGWC5KsETqZxxWuA2hid5WEWtBgPpw%3D\n1 < Nel: {\"report_to\":\"heroku-nel\",\"max_age\":3600,\"success_fraction\":0.005,\"failure_fraction\":0.05,\"response_headers\":[\"Via\"]}\n1 < X-Powered-By: Express\n1 < Access-Control-Allow-Origin: *\n1 < Etag: W\/\"2c1-N6Rqerxquq2kgQhL51EiSg4x0R8\"\n1 < Via: 1.1 vegur\n1 < Cache-Control: max-age=14400\n1 < CF-Cache-Status: REVALIDATED\n1 < Vary: Accept-Encoding\n1 < Server: cloudflare\n1 < CF-RAY: 8632f24a58073ad9-BOM\n{\"page\":1,\"per_page\":6,\"total\":12,\"total_pages\":2,\"data\":[{\"id\":1,\"name\":\"cerulean\",\"year\":2000,\"color\":\"#98B2D1\",\"pantone_value\":\"15-4020\"},{\"id\":2,\"name\":\"fuchsia rose\",\"year\":2001,\"color\":\"#C74375\",\"pantone_value\":\"17-2031\"},{\"id\":3,\"name\":\"true red\",\"year\":2002,\"color\":\"#BF1932\",\"pantone_value\":\"19-1664\"},{\"id\":4,\"name\":\"aqua sky\",\"year\":2003,\"color\":\"#7BC4C4\",\"pantone_value\":\"14-4811\"},{\"id\":5,\"name\":\"tigerlily\",\"year\":2004,\"color\":\"#E2583E\",\"pantone_value\":\"17-1456\"},{\"id\":6,\"name\":\"blue turquoise\",\"year\":2005,\"color\":\"#53B0AE\",\"pantone_value\":\"15-5217\"}],\"support\":{\"url\":\"https:\/\/reqres.in\/#support-heading\",\"text\":\"To keep ReqRes free, contributions towards server costs are appreciated!\"}}\n\n"},{"result":{"nanos":33900,"millis":0.0339,"status":"passed"},"step":{"line":8,"prefix":"Then","index":2,"text":"status 200"}},{"result":{"nanos":55191200,"millis":55.1912,"status":"passed"},"step":{"line":9,"prefix":"*","index":3,"text":"print response"},"stepLog":"15:32:03.413 [print] {\n  \"page\": 1,\n  \"per_page\": 6,\n  \"total\": 12,\n  \"total_pages\": 2,\n  \"data\": [\n    {\n      \"id\": 1,\n      \"name\": \"cerulean\",\n      \"year\": 2000,\n      \"color\": \"#98B2D1\",\n      \"pantone_value\": \"15-4020\"\n    },\n    {\n      \"id\": 2,\n      \"name\": \"fuchsia rose\",\n      \"year\": 2001,\n      \"color\": \"#C74375\",\n      \"pantone_value\": \"17-2031\"\n    },\n    {\n      \"id\": 3,\n      \"name\": \"true red\",\n      \"year\": 2002,\n      \"color\": \"#BF1932\",\n      \"pantone_value\": \"19-1664\"\n    },\n    {\n      \"id\": 4,\n      \"name\": \"aqua sky\",\n      \"year\": 2003,\n      \"color\": \"#7BC4C4\",\n      \"pantone_value\": \"14-4811\"\n    },\n    {\n      \"id\": 5,\n      \"name\": \"tigerlily\",\n      \"year\": 2004,\n      \"color\": \"#E2583E\",\n      \"pantone_value\": \"17-1456\"\n    },\n    {\n      \"id\": 6,\n      \"name\": \"blue turquoise\",\n      \"year\": 2005,\n      \"color\": \"#53B0AE\",\n      \"pantone_value\": \"15-5217\"\n    }\n  ],\n  \"support\": {\n    \"url\": \"https:\/\/reqres.in\/#support-heading\",\n    \"text\": \"To keep ReqRes free, contributions towards server costs are appreciated!\"\n  }\n}\n \n"}],"executorName":"main","line":5,"name":"Get data","description":"","durationMillis":1366.3671,"startTime":1710237722018,"failed":false,"refId":"[1:5]","endTime":1710237723414,"exampleIndex":-1},{"sectionIndex":1,"stepResults":[{"result":{"nanos":298400,"millis":0.2984,"status":"passed"},"step":{"background":true,"line":3,"prefix":"*","index":0,"text":"url 'https:\/\/reqres.in'"}},{"result":{"nanos":627600,"millis":0.6276,"status":"passed"},"step":{"line":12,"prefix":"Given","index":0,"text":"path '\/api\/users'"}},{"result":{"nanos":878100,"millis":0.8781,"status":"passed"},"step":{"line":13,"prefix":"And","index":1,"text":"request '{ \"name\": \"morpheus\", \"job\": \"leader\" }'"}},{"result":{"nanos":508465300,"millis":508.4653,"status":"passed"},"step":{"line":14,"prefix":"When","index":2,"text":"method POST"},"stepLog":"15:32:03.457 request:\n1 > POST https:\/\/reqres.in\/api\/users\n1 > Content-Type: text\/plain; charset=UTF-8\n1 > Content-Length: 39\n1 > Host: reqres.in\n1 > Connection: Keep-Alive\n1 > User-Agent: Apache-HttpClient\/4.5.14 (Java\/17.0.3.1)\n1 > Accept-Encoding: gzip,deflate\n{ \"name\": \"morpheus\", \"job\": \"leader\" }\n\n15:32:03.926 response time in milliseconds: 465\n1 < 201\n1 < Date: Tue, 12 Mar 2024 10:02:04 GMT\n1 < Content-Type: application\/json; charset=utf-8\n1 < Content-Length: 51\n1 < Connection: keep-alive\n1 < Report-To: {\"group\":\"heroku-nel\",\"max_age\":3600,\"endpoints\":[{\"url\":\"https:\/\/nel.heroku.com\/reports?ts=1710237724&sid=c4c9725f-1ab0-44d8-820f-430df2718e11&s=Q0WfQhVdHQT7yCl7DFIfhXpJAHoT%2B8LF%2F16zzytUj1A%3D\"}]}\n1 < Reporting-Endpoints: heroku-nel=https:\/\/nel.heroku.com\/reports?ts=1710237724&sid=c4c9725f-1ab0-44d8-820f-430df2718e11&s=Q0WfQhVdHQT7yCl7DFIfhXpJAHoT%2B8LF%2F16zzytUj1A%3D\n1 < Nel: {\"report_to\":\"heroku-nel\",\"max_age\":3600,\"success_fraction\":0.005,\"failure_fraction\":0.05,\"response_headers\":[\"Via\"]}\n1 < X-Powered-By: Express\n1 < Access-Control-Allow-Origin: *\n1 < Etag: W\/\"33-Lla6q+slr1\/JKlSszbd2N\/lWXBI\"\n1 < Via: 1.1 vegur\n1 < CF-Cache-Status: DYNAMIC\n1 < Server: cloudflare\n1 < CF-RAY: 8632f24e1ad71bcb-BOM\n{\"id\":\"165\",\"createdAt\":\"2024-03-12T10:02:04.055Z\"}\n\n"},{"result":{"nanos":14065900,"errorMessage":"status code was: 201, expected: 200, response time in milliseconds: 465, url: https:\/\/reqres.in\/api\/users, response: \n{\"id\":\"165\",\"createdAt\":\"2024-03-12T10:02:04.055Z\"}\nsrc\/test\/java\/ft.feature:15","millis":14.0659,"status":"failed"},"step":{"line":15,"prefix":"Then","index":3,"text":"status 200"},"stepLog":"15:32:03.944 src\/test\/java\/ft.feature:15\nThen status 200\nstatus code was: 201, expected: 200, response time in milliseconds: 465, url: https:\/\/reqres.in\/api\/users, response: \n{\"id\":\"165\",\"createdAt\":\"2024-03-12T10:02:04.055Z\"}\nsrc\/test\/java\/ft.feature:15\n"},{"result":{"nanos":0,"millis":0.0,"status":"skipped"},"step":{"line":16,"prefix":"*","index":4,"text":"def id = response.id"}},{"result":{"nanos":0,"millis":0.0,"status":"skipped"},"step":{"line":17,"prefix":"*","index":5,"text":"print id"}}],"line":11,"description":"","durationMillis":524.3353,"failed":true,"error":"status code was: 201, expected: 200, response time in milliseconds: 465, url: https:\/\/reqres.in\/api\/users, response: \n{\"id\":\"165\",\"createdAt\":\"2024-03-12T10:02:04.055Z\"}\nsrc\/test\/java\/ft.feature:15","executorName":"main","name":"Create user","startTime":1710237723418,"refId":"[2:11]","endTime":1710237723944,"exampleIndex":-1}],"callDepth":0,"name":"API Testing","description":"","resultDate":"2024-03-12 03:32:03 pm","durationMillis":1890.7024,"passedCount":1}