{"failedCount":1,"prefixedPath":"src\/test\/java\/ft.feature","packageQualifiedName":"src.test.java.ft","loopIndex":-1,"relativePath":"src\/test\/java\/ft.feature","scenarioResults":[{"sectionIndex":0,"stepResults":[{"result":{"nanos":120534100,"millis":120.5341,"status":"passed"},"step":{"background":true,"line":3,"prefix":"*","index":0,"text":"url 'https:\/\/reqres.in'"}},{"result":{"nanos":909900,"millis":0.9099,"status":"passed"},"step":{"line":6,"prefix":"Given","index":0,"text":"path '\/api\/users?page=2'"}},{"result":{"nanos":610967100,"millis":610.9671,"status":"passed"},"step":{"line":7,"prefix":"When","index":1,"text":"method GET"},"stepLog":"16:12:41.727 request:\n1 > GET https:\/\/reqres.in\/api\/users%3Fpage=2\n1 > Host: reqres.in\n1 > Connection: Keep-Alive\n1 > User-Agent: Apache-HttpClient\/4.5.14 (Java\/17.0.3.1)\n1 > Accept-Encoding: gzip,deflate\n\n\n16:12:41.941 response time in milliseconds: 209\n1 < 200\n1 < Date: Tue, 12 Mar 2024 10:42:42 GMT\n1 < Content-Type: application\/json; charset=utf-8\n1 < Transfer-Encoding: chunked\n1 < Connection: keep-alive\n1 < Report-To: {\"group\":\"heroku-nel\",\"max_age\":3600,\"endpoints\":[{\"url\":\"https:\/\/nel.heroku.com\/reports?ts=1709204095&sid=c4c9725f-1ab0-44d8-820f-430df2718e11&s=XMcAZbVGcGMoYZGWC5KsETqZxxWuA2hid5WEWtBgPpw%3D\"}]}\n1 < Reporting-Endpoints: heroku-nel=https:\/\/nel.heroku.com\/reports?ts=1709204095&sid=c4c9725f-1ab0-44d8-820f-430df2718e11&s=XMcAZbVGcGMoYZGWC5KsETqZxxWuA2hid5WEWtBgPpw%3D\n1 < Nel: {\"report_to\":\"heroku-nel\",\"max_age\":3600,\"success_fraction\":0.005,\"failure_fraction\":0.05,\"response_headers\":[\"Via\"]}\n1 < X-Powered-By: Express\n1 < Access-Control-Allow-Origin: *\n1 < Etag: W\/\"2c1-N6Rqerxquq2kgQhL51EiSg4x0R8\"\n1 < Via: 1.1 vegur\n1 < Cache-Control: max-age=14400\n1 < CF-Cache-Status: HIT\n1 < Age: 2439\n1 < Vary: Accept-Encoding\n1 < Server: cloudflare\n1 < CF-RAY: 86332dd58caa3b13-BOM\n{\"page\":1,\"per_page\":6,\"total\":12,\"total_pages\":2,\"data\":[{\"id\":1,\"name\":\"cerulean\",\"year\":2000,\"color\":\"#98B2D1\",\"pantone_value\":\"15-4020\"},{\"id\":2,\"name\":\"fuchsia rose\",\"year\":2001,\"color\":\"#C74375\",\"pantone_value\":\"17-2031\"},{\"id\":3,\"name\":\"true red\",\"year\":2002,\"color\":\"#BF1932\",\"pantone_value\":\"19-1664\"},{\"id\":4,\"name\":\"aqua sky\",\"year\":2003,\"color\":\"#7BC4C4\",\"pantone_value\":\"14-4811\"},{\"id\":5,\"name\":\"tigerlily\",\"year\":2004,\"color\":\"#E2583E\",\"pantone_value\":\"17-1456\"},{\"id\":6,\"name\":\"blue turquoise\",\"year\":2005,\"color\":\"#53B0AE\",\"pantone_value\":\"15-5217\"}],\"support\":{\"url\":\"https:\/\/reqres.in\/#support-heading\",\"text\":\"To keep ReqRes free, contributions towards server costs are appreciated!\"}}\n\n"},{"result":{"nanos":17900,"millis":0.0179,"status":"passed"},"step":{"line":8,"prefix":"Then","index":2,"text":"status 200"}},{"result":{"nanos":67092200,"millis":67.0922,"status":"passed"},"step":{"line":9,"prefix":"*","index":3,"text":"print response"},"stepLog":"16:12:42.039 [print] {\n  \"page\": 1,\n  \"per_page\": 6,\n  \"total\": 12,\n  \"total_pages\": 2,\n  \"data\": [\n    {\n      \"id\": 1,\n      \"name\": \"cerulean\",\n      \"year\": 2000,\n      \"color\": \"#98B2D1\",\n      \"pantone_value\": \"15-4020\"\n    },\n    {\n      \"id\": 2,\n      \"name\": \"fuchsia rose\",\n      \"year\": 2001,\n      \"color\": \"#C74375\",\n      \"pantone_value\": \"17-2031\"\n    },\n    {\n      \"id\": 3,\n      \"name\": \"true red\",\n      \"year\": 2002,\n      \"color\": \"#BF1932\",\n      \"pantone_value\": \"19-1664\"\n    },\n    {\n      \"id\": 4,\n      \"name\": \"aqua sky\",\n      \"year\": 2003,\n      \"color\": \"#7BC4C4\",\n      \"pantone_value\": \"14-4811\"\n    },\n    {\n      \"id\": 5,\n      \"name\": \"tigerlily\",\n      \"year\": 2004,\n      \"color\": \"#E2583E\",\n      \"pantone_value\": \"17-1456\"\n    },\n    {\n      \"id\": 6,\n      \"name\": \"blue turquoise\",\n      \"year\": 2005,\n      \"color\": \"#53B0AE\",\n      \"pantone_value\": \"15-5217\"\n    }\n  ],\n  \"support\": {\n    \"url\": \"https:\/\/reqres.in\/#support-heading\",\n    \"text\": \"To keep ReqRes free, contributions towards server costs are appreciated!\"\n  }\n}\n \n"}],"executorName":"main","line":5,"name":"Get data","description":"","durationMillis":799.5212,"startTime":1710240161207,"failed":false,"refId":"[1:5]","endTime":1710240162041,"exampleIndex":-1},{"sectionIndex":1,"stepResults":[{"result":{"nanos":465600,"millis":0.4656,"status":"passed"},"step":{"background":true,"line":3,"prefix":"*","index":0,"text":"url 'https:\/\/reqres.in'"}},{"result":{"nanos":581500,"millis":0.5815,"status":"passed"},"step":{"line":12,"prefix":"Given","index":0,"text":"path '\/api\/users'"}},{"result":{"nanos":609400,"millis":0.6094,"status":"passed"},"step":{"line":13,"prefix":"And","index":1,"text":"request '{ \"name\": \"morpheus\", \"job\": \"leader\" }'"}},{"result":{"nanos":418196400,"millis":418.1964,"status":"passed"},"step":{"line":14,"prefix":"When","index":2,"text":"method POST"},"stepLog":"16:12:42.095 request:\n1 > POST https:\/\/reqres.in\/api\/users\n1 > Content-Type: text\/plain; charset=UTF-8\n1 > Content-Length: 39\n1 > Host: reqres.in\n1 > Connection: Keep-Alive\n1 > User-Agent: Apache-HttpClient\/4.5.14 (Java\/17.0.3.1)\n1 > Accept-Encoding: gzip,deflate\n{ \"name\": \"morpheus\", \"job\": \"leader\" }\n\n16:12:42.465 response time in milliseconds: 366\n1 < 201\n1 < Date: Tue, 12 Mar 2024 10:42:42 GMT\n1 < Content-Type: application\/json; charset=utf-8\n1 < Content-Length: 51\n1 < Connection: keep-alive\n1 < Report-To: {\"group\":\"heroku-nel\",\"max_age\":3600,\"endpoints\":[{\"url\":\"https:\/\/nel.heroku.com\/reports?ts=1710240162&sid=c4c9725f-1ab0-44d8-820f-430df2718e11&s=OcB5OxPCkn5%2B%2B0npeX4FFYpUVZcK8TJuGwSSJ6DPQF0%3D\"}]}\n1 < Reporting-Endpoints: heroku-nel=https:\/\/nel.heroku.com\/reports?ts=1710240162&sid=c4c9725f-1ab0-44d8-820f-430df2718e11&s=OcB5OxPCkn5%2B%2B0npeX4FFYpUVZcK8TJuGwSSJ6DPQF0%3D\n1 < Nel: {\"report_to\":\"heroku-nel\",\"max_age\":3600,\"success_fraction\":0.005,\"failure_fraction\":0.05,\"response_headers\":[\"Via\"]}\n1 < X-Powered-By: Express\n1 < Access-Control-Allow-Origin: *\n1 < Etag: W\/\"33-oLJ5Fm475EJVGEUvsLG3WMJkNrw\"\n1 < Via: 1.1 vegur\n1 < CF-Cache-Status: DYNAMIC\n1 < Server: cloudflare\n1 < CF-RAY: 86332dd71e66857e-BOM\n{\"id\":\"555\",\"createdAt\":\"2024-03-12T10:42:42.621Z\"}\n\n"},{"result":{"nanos":27700,"millis":0.0277,"status":"passed"},"step":{"line":15,"prefix":"Then","index":3,"text":"status 201"}},{"result":{"nanos":4118200,"millis":4.1182,"status":"passed"},"step":{"line":16,"prefix":"*","index":4,"text":"def id = response.id"}},{"result":{"nanos":1521400,"millis":1.5214,"status":"passed"},"step":{"line":17,"prefix":"*","index":5,"text":"print id"},"stepLog":"16:12:42.474 [print] 555 \n"}],"executorName":"main","line":11,"name":"Create user","description":"","durationMillis":425.5202,"startTime":1710240162047,"failed":false,"refId":"[2:11]","endTime":1710240162475,"exampleIndex":-1},{"sectionIndex":2,"stepResults":[{"result":{"nanos":361600,"millis":0.3616,"status":"passed"},"step":{"background":true,"line":3,"prefix":"*","index":0,"text":"url 'https:\/\/reqres.in'"}},{"result":{"nanos":724500,"millis":0.7245,"status":"passed"},"step":{"line":20,"prefix":"Given","index":0,"text":"path '\/api\/users\/ + id'"}},{"result":{"nanos":636400,"millis":0.6364,"status":"passed"},"step":{"line":21,"prefix":"And","index":1,"text":"request '{ \"name\": \"Burphe\", \"job\": \"Berojgagr\"}'"}},{"result":{"nanos":416311700,"millis":416.3117,"status":"passed"},"step":{"line":22,"prefix":"When","index":2,"text":"method PUT"},"stepLog":"16:12:42.485 request:\n1 > PUT https:\/\/reqres.in\/api\/users\/%20+%20id\n1 > Content-Type: text\/plain; charset=UTF-8\n1 > Content-Length: 39\n1 > Host: reqres.in\n1 > Connection: Keep-Alive\n1 > User-Agent: Apache-HttpClient\/4.5.14 (Java\/17.0.3.1)\n1 > Accept-Encoding: gzip,deflate\n{ \"name\": \"Burphe\", \"job\": \"Berojgagr\"}\n\n16:12:42.899 response time in milliseconds: 409\n1 < 200\n1 < Date: Tue, 12 Mar 2024 10:42:43 GMT\n1 < Content-Type: application\/json; charset=utf-8\n1 < Content-Length: 40\n1 < Connection: keep-alive\n1 < Report-To: {\"group\":\"heroku-nel\",\"max_age\":3600,\"endpoints\":[{\"url\":\"https:\/\/nel.heroku.com\/reports?ts=1710240163&sid=c4c9725f-1ab0-44d8-820f-430df2718e11&s=qZrQ74vMBNgLXw%2FTk6BqrbcmhVdwQJrtkHBLTvNPukc%3D\"}]}\n1 < Reporting-Endpoints: heroku-nel=https:\/\/nel.heroku.com\/reports?ts=1710240163&sid=c4c9725f-1ab0-44d8-820f-430df2718e11&s=qZrQ74vMBNgLXw%2FTk6BqrbcmhVdwQJrtkHBLTvNPukc%3D\n1 < Nel: {\"report_to\":\"heroku-nel\",\"max_age\":3600,\"success_fraction\":0.005,\"failure_fraction\":0.05,\"response_headers\":[\"Via\"]}\n1 < X-Powered-By: Express\n1 < Access-Control-Allow-Origin: *\n1 < Etag: W\/\"28-AdFr1R6lzygJ4sBUXVa0Tle69M8\"\n1 < Via: 1.1 vegur\n1 < CF-Cache-Status: DYNAMIC\n1 < Vary: Accept-Encoding\n1 < Server: cloudflare\n1 < CF-RAY: 86332dd9a99d3a1b-BOM\n{\"updatedAt\":\"2024-03-12T10:42:43.027Z\"}\n\n"},{"result":{"nanos":14500,"millis":0.0145,"status":"passed"},"step":{"line":23,"prefix":"Then","index":3,"text":"status 200"}},{"result":{"nanos":930400,"millis":0.9304,"status":"passed"},"step":{"line":24,"prefix":"*","index":4,"text":"print response"},"stepLog":"16:12:42.901 [print] {\n  \"updatedAt\": \"2024-03-12T10:42:43.027Z\"\n}\n \n"},{"result":{"nanos":39007600,"errorMessage":"match failed: EQUALS\n  $ | actual path does not exist (STRING:STRING)\n  '#notpresent'\n  'Burphe'\n\nsrc\/test\/java\/ft.feature:25","millis":39.0076,"status":"failed"},"step":{"line":25,"prefix":"And","index":5,"text":"match response.name == 'Burphe'"},"stepLog":"16:12:42.938 src\/test\/java\/ft.feature:25\nAnd match response.name == 'Burphe'\nmatch failed: EQUALS\n  $ | actual path does not exist (STRING:STRING)\n  '#notpresent'\n  'Burphe'\n\nsrc\/test\/java\/ft.feature:25\n"}],"line":19,"description":"","durationMillis":457.9867,"failed":true,"error":"match failed: EQUALS\n  $ | actual path does not exist (STRING:STRING)\n  '#notpresent'\n  'Burphe'\n\nsrc\/test\/java\/ft.feature:25","executorName":"main","name":"Update user","startTime":1710240162479,"refId":"[3:19]","endTime":1710240162938,"exampleIndex":-1}],"callDepth":0,"name":"API Testing","description":"","resultDate":"2024-03-12 04:12:42 pm","durationMillis":1683.0281,"passedCount":2}