{"failedCount":1,"prefixedPath":"src\/test\/java\/ft.feature","packageQualifiedName":"src.test.java.ft","loopIndex":-1,"relativePath":"src\/test\/java\/ft.feature","scenarioResults":[{"sectionIndex":0,"stepResults":[{"result":{"nanos":63903400,"millis":63.9034,"status":"passed"},"step":{"background":true,"line":3,"prefix":"*","index":0,"text":"url 'https:\/\/reqres.in'"}},{"result":{"nanos":482500,"millis":0.4825,"status":"passed"},"step":{"line":6,"prefix":"Given","index":0,"text":"path '\/api\/users?page=2'"}},{"result":{"nanos":519023600,"millis":519.0236,"status":"passed"},"step":{"line":7,"prefix":"When","index":1,"text":"method GET"},"stepLog":"16:22:28.130 request:\n1 > GET https:\/\/reqres.in\/api\/users%3Fpage=2\n1 > Host: reqres.in\n1 > Connection: Keep-Alive\n1 > User-Agent: Apache-HttpClient\/4.5.14 (Java\/17.0.3.1)\n1 > Accept-Encoding: gzip,deflate\n\n\n16:22:28.389 response time in milliseconds: 250\n1 < 200\n1 < Date: Tue, 12 Mar 2024 10:52:28 GMT\n1 < Content-Type: application\/json; charset=utf-8\n1 < Transfer-Encoding: chunked\n1 < Connection: keep-alive\n1 < Report-To: {\"group\":\"heroku-nel\",\"max_age\":3600,\"endpoints\":[{\"url\":\"https:\/\/nel.heroku.com\/reports?ts=1710228493&sid=c4c9725f-1ab0-44d8-820f-430df2718e11&s=C0C0xgvdJna7FGpJVlUfeSpMvacIvnvS0JrElFJe85I%3D\"}]}\n1 < Reporting-Endpoints: heroku-nel=https:\/\/nel.heroku.com\/reports?ts=1710228493&sid=c4c9725f-1ab0-44d8-820f-430df2718e11&s=C0C0xgvdJna7FGpJVlUfeSpMvacIvnvS0JrElFJe85I%3D\n1 < Nel: {\"report_to\":\"heroku-nel\",\"max_age\":3600,\"success_fraction\":0.005,\"failure_fraction\":0.05,\"response_headers\":[\"Via\"]}\n1 < X-Powered-By: Express\n1 < Access-Control-Allow-Origin: *\n1 < Etag: W\/\"2c1-N6Rqerxquq2kgQhL51EiSg4x0R8\"\n1 < Via: 1.1 vegur\n1 < Cache-Control: max-age=14400\n1 < CF-Cache-Status: HIT\n1 < Age: 769\n1 < Vary: Accept-Encoding\n1 < Server: cloudflare\n1 < CF-RAY: 86333c26cb8e857d-BOM\n{\"page\":1,\"per_page\":6,\"total\":12,\"total_pages\":2,\"data\":[{\"id\":1,\"name\":\"cerulean\",\"year\":2000,\"color\":\"#98B2D1\",\"pantone_value\":\"15-4020\"},{\"id\":2,\"name\":\"fuchsia rose\",\"year\":2001,\"color\":\"#C74375\",\"pantone_value\":\"17-2031\"},{\"id\":3,\"name\":\"true red\",\"year\":2002,\"color\":\"#BF1932\",\"pantone_value\":\"19-1664\"},{\"id\":4,\"name\":\"aqua sky\",\"year\":2003,\"color\":\"#7BC4C4\",\"pantone_value\":\"14-4811\"},{\"id\":5,\"name\":\"tigerlily\",\"year\":2004,\"color\":\"#E2583E\",\"pantone_value\":\"17-1456\"},{\"id\":6,\"name\":\"blue turquoise\",\"year\":2005,\"color\":\"#53B0AE\",\"pantone_value\":\"15-5217\"}],\"support\":{\"url\":\"https:\/\/reqres.in\/#support-heading\",\"text\":\"To keep ReqRes free, contributions towards server costs are appreciated!\"}}\n\n"},{"result":{"nanos":17200,"millis":0.0172,"status":"passed"},"step":{"line":8,"prefix":"Then","index":2,"text":"status 200"}},{"result":{"nanos":67410500,"millis":67.4105,"status":"passed"},"step":{"line":9,"prefix":"*","index":3,"text":"print response"},"stepLog":"16:22:28.479 [print] {\n  \"page\": 1,\n  \"per_page\": 6,\n  \"total\": 12,\n  \"total_pages\": 2,\n  \"data\": [\n    {\n      \"id\": 1,\n      \"name\": \"cerulean\",\n      \"year\": 2000,\n      \"color\": \"#98B2D1\",\n      \"pantone_value\": \"15-4020\"\n    },\n    {\n      \"id\": 2,\n      \"name\": \"fuchsia rose\",\n      \"year\": 2001,\n      \"color\": \"#C74375\",\n      \"pantone_value\": \"17-2031\"\n    },\n    {\n      \"id\": 3,\n      \"name\": \"true red\",\n      \"year\": 2002,\n      \"color\": \"#BF1932\",\n      \"pantone_value\": \"19-1664\"\n    },\n    {\n      \"id\": 4,\n      \"name\": \"aqua sky\",\n      \"year\": 2003,\n      \"color\": \"#7BC4C4\",\n      \"pantone_value\": \"14-4811\"\n    },\n    {\n      \"id\": 5,\n      \"name\": \"tigerlily\",\n      \"year\": 2004,\n      \"color\": \"#E2583E\",\n      \"pantone_value\": \"17-1456\"\n    },\n    {\n      \"id\": 6,\n      \"name\": \"blue turquoise\",\n      \"year\": 2005,\n      \"color\": \"#53B0AE\",\n      \"pantone_value\": \"15-5217\"\n    }\n  ],\n  \"support\": {\n    \"url\": \"https:\/\/reqres.in\/#support-heading\",\n    \"text\": \"To keep ReqRes free, contributions towards server costs are appreciated!\"\n  }\n}\n \n"}],"executorName":"main","line":5,"name":"Get data","description":"","durationMillis":650.8372,"startTime":1710240747815,"failed":false,"refId":"[1:5]","endTime":1710240748481,"exampleIndex":-1},{"sectionIndex":1,"stepResults":[{"result":{"nanos":447800,"millis":0.4478,"status":"passed"},"step":{"background":true,"line":3,"prefix":"*","index":0,"text":"url 'https:\/\/reqres.in'"}},{"result":{"nanos":882300,"millis":0.8823,"status":"passed"},"step":{"line":12,"prefix":"Given","index":0,"text":"path '\/api\/users'"}},{"result":{"nanos":589900,"millis":0.5899,"status":"passed"},"step":{"line":13,"prefix":"And","index":1,"text":"request '{ \"name\": \"morpheus\", \"job\": \"leader\" }'"}},{"result":{"nanos":433665400,"millis":433.6654,"status":"passed"},"step":{"line":14,"prefix":"When","index":2,"text":"method POST"},"stepLog":"16:22:28.531 request:\n1 > POST https:\/\/reqres.in\/api\/users\n1 > Content-Type: text\/plain; charset=UTF-8\n1 > Content-Length: 39\n1 > Host: reqres.in\n1 > Connection: Keep-Alive\n1 > User-Agent: Apache-HttpClient\/4.5.14 (Java\/17.0.3.1)\n1 > Accept-Encoding: gzip,deflate\n{ \"name\": \"morpheus\", \"job\": \"leader\" }\n\n16:22:28.921 response time in milliseconds: 383\n1 < 201\n1 < Date: Tue, 12 Mar 2024 10:52:29 GMT\n1 < Content-Type: application\/json; charset=utf-8\n1 < Content-Length: 51\n1 < Connection: keep-alive\n1 < Report-To: {\"group\":\"heroku-nel\",\"max_age\":3600,\"endpoints\":[{\"url\":\"https:\/\/nel.heroku.com\/reports?ts=1710240749&sid=c4c9725f-1ab0-44d8-820f-430df2718e11&s=AuzmcBeb9xbUqOnGnL1m4hO90eVmRVpbRmRHMUkb08E%3D\"}]}\n1 < Reporting-Endpoints: heroku-nel=https:\/\/nel.heroku.com\/reports?ts=1710240749&sid=c4c9725f-1ab0-44d8-820f-430df2718e11&s=AuzmcBeb9xbUqOnGnL1m4hO90eVmRVpbRmRHMUkb08E%3D\n1 < Nel: {\"report_to\":\"heroku-nel\",\"max_age\":3600,\"success_fraction\":0.005,\"failure_fraction\":0.05,\"response_headers\":[\"Via\"]}\n1 < X-Powered-By: Express\n1 < Access-Control-Allow-Origin: *\n1 < Etag: W\/\"33-5gUIisb32yyg9pfBiwjLTJaRd\/E\"\n1 < Via: 1.1 vegur\n1 < CF-Cache-Status: DYNAMIC\n1 < Server: cloudflare\n1 < CF-RAY: 86333c2879113c82-BOM\n{\"id\":\"777\",\"createdAt\":\"2024-03-12T10:52:29.067Z\"}\n\n"},{"result":{"nanos":15500,"millis":0.0155,"status":"passed"},"step":{"line":15,"prefix":"Then","index":3,"text":"status 201"}},{"result":{"nanos":2790800,"millis":2.7908,"status":"passed"},"step":{"line":16,"prefix":"*","index":4,"text":"def id = response.id"}},{"result":{"nanos":1402500,"millis":1.4025,"status":"passed"},"step":{"line":17,"prefix":"*","index":5,"text":"print id"},"stepLog":"16:22:28.928 [print] 777 \n"}],"executorName":"main","line":11,"name":"Create user","description":"","durationMillis":439.7942,"startTime":1710240748486,"failed":false,"refId":"[2:11]","endTime":1710240748928,"exampleIndex":-1},{"sectionIndex":2,"stepResults":[{"result":{"nanos":283000,"millis":0.283,"status":"passed"},"step":{"background":true,"line":3,"prefix":"*","index":0,"text":"url 'https:\/\/reqres.in'"}},{"result":{"nanos":548800,"millis":0.5488,"status":"passed"},"step":{"line":20,"prefix":"Given","index":0,"text":"path '\/api\/users\/<id>'"}},{"result":{"nanos":566800,"millis":0.5668,"status":"passed"},"step":{"line":21,"prefix":"And","index":1,"text":"request ' { \"name\": \"Mark\", \"job\": \"Teacher\"}'"}},{"result":{"nanos":874524600,"millis":874.5246,"status":"passed"},"step":{"line":22,"prefix":"When","index":2,"text":"method PUT"},"stepLog":"16:22:28.937 request:\n1 > PUT https:\/\/reqres.in\/api\/users\/%3Cid%3E\n1 > Content-Type: text\/plain; charset=UTF-8\n1 > Content-Length: 36\n1 > Host: reqres.in\n1 > Connection: Keep-Alive\n1 > User-Agent: Apache-HttpClient\/4.5.14 (Java\/17.0.3.1)\n1 > Accept-Encoding: gzip,deflate\n { \"name\": \"Mark\", \"job\": \"Teacher\"}\n\n16:22:29.808 response time in milliseconds: 863\n1 < 200\n1 < Date: Tue, 12 Mar 2024 10:52:30 GMT\n1 < Content-Type: application\/json; charset=utf-8\n1 < Content-Length: 40\n1 < Connection: keep-alive\n1 < Report-To: {\"group\":\"heroku-nel\",\"max_age\":3600,\"endpoints\":[{\"url\":\"https:\/\/nel.heroku.com\/reports?ts=1710240749&sid=c4c9725f-1ab0-44d8-820f-430df2718e11&s=AuzmcBeb9xbUqOnGnL1m4hO90eVmRVpbRmRHMUkb08E%3D\"}]}\n1 < Reporting-Endpoints: heroku-nel=https:\/\/nel.heroku.com\/reports?ts=1710240749&sid=c4c9725f-1ab0-44d8-820f-430df2718e11&s=AuzmcBeb9xbUqOnGnL1m4hO90eVmRVpbRmRHMUkb08E%3D\n1 < Nel: {\"report_to\":\"heroku-nel\",\"max_age\":3600,\"success_fraction\":0.005,\"failure_fraction\":0.05,\"response_headers\":[\"Via\"]}\n1 < X-Powered-By: Express\n1 < Access-Control-Allow-Origin: *\n1 < Etag: W\/\"28-DHwuFc60mCTwtiRwiY4\/qu7kp20\"\n1 < Via: 1.1 vegur\n1 < CF-Cache-Status: DYNAMIC\n1 < Vary: Accept-Encoding\n1 < Server: cloudflare\n1 < CF-RAY: 86333c2ddc38f45a-BOM\n{\"updatedAt\":\"2024-03-12T10:52:29.964Z\"}\n\n"},{"result":{"nanos":18300,"millis":0.0183,"status":"passed"},"step":{"line":23,"prefix":"Then","index":3,"text":"status 200"}},{"result":{"nanos":906400,"millis":0.9064,"status":"passed"},"step":{"line":24,"prefix":"And","index":4,"text":"print response"},"stepLog":"16:22:29.811 [print] {\n  \"updatedAt\": \"2024-03-12T10:52:29.964Z\"\n}\n \n"},{"result":{"nanos":38192300,"errorMessage":"match failed: NOT_EQUALS\n  $ | actual path does not exist (STRING:STRING)\n  '#notpresent'\n  'morpheus'\n\nsrc\/test\/java\/ft.feature:25","millis":38.1923,"status":"failed"},"step":{"line":25,"prefix":"And","index":5,"text":"match response.name != \"morpheus\""},"stepLog":"16:22:29.846 src\/test\/java\/ft.feature:25\nAnd match response.name != \"morpheus\"\nmatch failed: NOT_EQUALS\n  $ | actual path does not exist (STRING:STRING)\n  '#notpresent'\n  'morpheus'\n\nsrc\/test\/java\/ft.feature:25\n"},{"result":{"nanos":0,"millis":0.0,"status":"skipped"},"step":{"line":26,"prefix":"And","index":6,"text":"match response.job != \"zion resident\""}}],"line":19,"description":"","durationMillis":915.0402,"failed":true,"error":"match failed: NOT_EQUALS\n  $ | actual path does not exist (STRING:STRING)\n  '#notpresent'\n  'morpheus'\n\nsrc\/test\/java\/ft.feature:25","executorName":"main","name":"Verify whether the id successfully getting Updated","startTime":1710240748933,"refId":"[3:19]","endTime":1710240749846,"exampleIndex":-1}],"callDepth":0,"name":"API Testing","description":"","resultDate":"2024-03-12 04:22:29 pm","durationMillis":2005.6716,"passedCount":2}